Data/meeting differntiaal 2/ALL0012 (20Vpp 100hz)/F0012CH2.CSV

Record Length,2.500000e+03,,  -0.025900000000,  -0.04880,
Sample Interval,2.000000e-05,,  -0.025880000000,  -0.04880,
Trigger Point,1.295000000000e+03,,  -0.025860000000,  -0.05040,
,,,  -0.025840000000,  -0.05040,
,,,  -0.025820000000,  -0.05040,
,,,  -0.025800000000,  -0.05040,
Source,CH2,,  -0.025780000000,  -0.05200,
Vertical Units,V,,  -0.025760000000,  -0.05200,
Vertical Scale,2.000000e-02,,  -0.025740000000,  -0.05280,
Vertical Offset,1.600000e-03,,  -0.025720000000,  -0.05200,
Horizontal Units,s,,  -0.025700000000,  -0.05360,
Horizontal Scale,5.000000e-03,,  -0.025680000000,  -0.05440,
Pt Fmt,Y,,  -0.025660000000,  -0.05520,
Yzero,0.000000e+00,,  -0.025640000000,  -0.05520,
Probe Atten,1.000000e+00,,  -0.025620000000,  -0.05520,
Model Number,TBS1064,,  -0.025600000000,  -0.05440,
Serial Number,C021209,,  -0.025580000000,  -0.05600,
Firmware Version,FV:v26.05,,  -0.025560000000,  -0.05760,
,,,-00.025540000000,  -0.05600,
,,,-00.025520000000,  -0.05600,
,,,-00.025500000000,  -0.05760,
,,,-00.025480000000,  -0.05920,
,,,-00.025460000000,  -0.05760,
,,,-00.025440000000,  -0.05840,
,,,-00.025420000000,  -0.06000,
,,,-00.025400000000,  -0.06080,
,,,-00.025380000000,  -0.06000,
,,,-00.025360000000,  -0.06080,
,,,-00.025340000000,  -0.06240,
,,,-00.025320000000,  -0.06160,
,,,-00.025300000000,  -0.06240,
,,,-00.025280000000,  -0.06320,
,,,-00.025260000000,  -0.06320,
,,,-00.025240000000,  -0.06400,
,,,-00.025220000000,  -0.06400,
,,,-00.025200000000,  -0.06480,
,,,-00.025180000000,  -0.06640,
,,,-00.025160000000,  -0.06400,
,,,-00.025140000000,  -0.06560,
,,,-00.025120000000,  -0.06640,
,,,-00.025100000000,  -0.06720,
,,,-00.025080000000,  -0.06720,
,,,-00.025060000000,  -0.06640,
,,,-00.025040000000,  -0.06720,
,,,-00.025020000000,  -0.06800,
,,,-00.025000000000,  -0.06800,
,,,-00.024980000000,  -0.06880,
,,,-00.024960000000,  -0.06800,
,,,-00.024940000000,  -0.06800,
,,,-00.024920000000,  -0.06880,
,,,-00.024900000000,  -0.06800,
,,,-00.024880000000,  -0.06880,
,,,-00.024860000000,  -0.06800,
,,,-00.024840000000,  -0.06880,
,,,-00.024820000000,  -0.06880,
,,,-00.024800000000,  -0.06720,
,,,-00.024780000000,  -0.06720,
,,,-00.024760000000,  -0.06720,
,,,-00.024740000000,  -0.06880,
,,,-00.024720000000,  -0.06880,
,,,-00.024700000000,  -0.06880,
,,,-00.024680000000,  -0.06800,
,,,-00.024660000000,  -0.06640,
,,,-00.024640000000,  -0.06640,
,,,-00.024620000000,  -0.06800,
,,,-00.024600000000,  -0.06640,
,,,-00.024580000000,  -0.06640,
,,,-00.024560000000,  -0.06560,
,,,-00.024540000000,  -0.06560,
,,,-00.024520000000,  -0.06320,
,,,-00.024500000000,  -0.06400,
,,,-00.024480000000,  -0.06320,
,,,-00.024460000000,  -0.05920,
,,,-00.024440000000,  -0.05360,
,,,-00.024420000000,  -0.05200,
,,,-00.024400000000,  -0.04880,
,,,-00.024380000000,  -0.04720,
,,,-00.024360000000,  -0.04640,
,,,-00.024340000000,  -0.04480,
,,,-00.024320000000,  -0.04400,
,,,-00.024300000000,  -0.04320,
,,,-00.024280000000,  -0.04240,
,,,-00.024260000000,  -0.04240,
,,,-00.024240000000,  -0.04080,
,,,-00.024220000000,  -0.04080,
,,,-00.024200000000,  -0.04080,
,,,-00.024180000000,  -0.04080,
,,,-00.024160000000,  -0.04080,
,,,-00.024140000000,  -0.03840,
,,,-00.024120000000,  -0.03920,
,,,-00.024100000000,  -0.03920,
,,,-00.024080000000,  -0.03920,
,,,-00.024060000000,  -0.04080,
,,,-00.024040000000,  -0.04080,
,,,-00.024020000000,  -0.04000,
,,,-00.024000000000,  -0.04000,
,,,-00.023980000000,  -0.04000,
,,,-00.023960000000,  -0.04080,
,,,-00.023940000000,  -0.04080,
,,,-00.023920000000,  -0.04160,
,,,-00.023900000000,  -0.04080,
,,,-00.023880000000,  -0.04160,
,,,-00.023860000000,  -0.04160,
,,,-00.023840000000,  -0.04240,
,,,-00.023820000000,  -0.04160,
,,,-00.023800000000,  -0.04080,
,,,-00.023780000000,  -0.04160,
,,,-00.023760000000,  -0.04080,
,,,-00.023740000000,  -0.04080,
,,,-00.023720000000,  -0.04080,
,,,-00.023700000000,  -0.04080,
,,,-00.023680000000,  -0.04080,
,,,-00.023660000000,  -0.04000,
,,,-00.023640000000,  -0.03920,
,,,-00.023620000000,  -0.03840,
,,,-00.023600000000,  -0.03840,
,,,-00.023580000000,  -0.03920,
,,,-00.023560000000,  -0.03680,
,,,-00.023540000000,  -0.03920,
,,,-00.023520000000,  -0.03440,
,,,-00.023500000000,  -0.03440,
,,,-00.023480000000,  -0.03520,
,,,-00.023460000000,  -0.03520,
,,,-00.023440000000,  -0.03440,
,,,-00.023420000000,  -0.03520,
,,,-00.023400000000,  -0.03360,
,,,-00.023380000000,  -0.03280,
,,,-00.023360000000,  -0.03200,
,,,-00.023340000000,  -0.03200,
,,,-00.023320000000,  -0.03280,
,,,-00.023300000000,  -0.03120,
,,,-00.023280000000,  -0.03120,
,,,-00.023260000000,  -0.03120,
,,,-00.023240000000,  -0.03200,
,,,-00.023220000000,  -0.02880,
,,,-00.023200000000,  -0.02960,
,,,-00.023180000000,  -0.02800,
,,,-00.023160000000,  -0.02720,
,,,-00.023140000000,  -0.02800,
,,,-00.023120000000,  -0.02960,
,,,-00.023100000000,  -0.03040,
,,,-00.023080000000,  -0.03040,
,,,-00.023060000000,  -0.02960,
,,,-00.023040000000,  -0.03040,
,,,-00.023020000000,  -0.03200,
,,,-00.023000000000,  -0.03360,
,,,-00.022980000000,  -0.03360,
,,,-00.022960000000,  -0.03280,
,,,-00.022940000000,  -0.03440,
,,,-00.022920000000,  -0.03440,
,,,-00.022900000000,  -0.03520,
,,,-00.022880000000,  -0.03440,
,,,-00.022860000000,  -0.03280,
,,,-00.022840000000,  -0.03200,
,,,-00.022820000000,  -0.02960,
,,,-00.022800000000,  -0.02880,
,,,-00.022780000000,  -0.02560,
,,,-00.022760000000,  -0.02320,
,,,-00.022740000000,  -0.02160,
,,,-00.022720000000,  -0.02000,
,,,-00.022700000000,  -0.01600,
,,,-00.022680000000,  -0.01440,
,,,-00.022660000000,  -0.01280,
,,,-00.022640000000,  -0.00960,
,,,-00.022620000000,  -0.00640,
,,,-00.022600000000,  -0.00640,
,,,-00.022580000000,  -0.00480,
,,,-00.022560000000,  -0.00240,
,,,-00.022540000000,   0.00000,
,,,-00.022520000000,   0.00000,
,,,-00.022500000000,   0.00480,
,,,-00.022480000000,   0.00320,
,,,-00.022460000000,   0.00400,
,,,-00.022440000000,   0.00800,
,,,-00.022420000000,   0.00800,
,,,-00.022400000000,   0.00720,
,,,-00.022380000000,   0.00960,
,,,-00.022360000000,   0.01040,
,,,-00.022340000000,   0.01040,
,,,-00.022320000000,   0.01280,
,,,-00.022300000000,   0.01200,
,,,-00.022280000000,   0.01360,
,,,-00.022260000000,   0.01440,
,,,-00.022240000000,   0.01600,
,,,-00.022220000000,   0.01520,
,,,-00.022200000000,   0.01600,
,,,-00.022180000000,   0.01600,
,,,-00.022160000000,   0.01680,
,,,-00.022140000000,   0.01760,
,,,-00.022120000000,   0.01760,
,,,-00.022100000000,   0.01840,
,,,-00.022080000000,   0.01760,
,,,-00.022060000000,   0.01760,
,,,-00.022040000000,   0.01840,
,,,-00.022020000000,   0.01840,
,,,-00.022000000000,   0.01760,
,,,-00.021980000000,   0.01520,
,,,-00.021960000000,   0.01840,
,,,-00.021940000000,   0.01840,
,,,-00.021920000000,   0.01840,
,,,-00.021900000000,   0.01920,
,,,-00.021880000000,   0.02000,
,,,-00.021860000000,   0.02000,
,,,-00.021840000000,   0.02160,
,,,-00.021820000000,   0.01920,
,,,-00.021800000000,   0.02080,
,,,-00.021780000000,   0.01920,
,,,-00.021760000000,   0.02080,
,,,-00.021740000000,   0.02000,
,,,-00.021720000000,   0.02160,
,,,-00.021700000000,   0.02240,
,,,-00.021680000000,   0.02240,
,,,-00.021660000000,   0.02160,
,,,-00.021640000000,   0.02400,
,,,-00.021620000000,   0.02400,
,,,-00.021600000000,   0.02480,
,,,-00.021580000000,   0.02480,
,,,-00.021560000000,   0.02640,
,,,-00.021540000000,   0.02720,
,,,-00.021520000000,   0.02800,
,,,-00.021500000000,   0.02800,
,,,-00.021480000000,   0.02800,
,,,-00.021460000000,   0.02800,
,,,-00.021440000000,   0.03120,
,,,-00.021420000000,   0.03200,
,,,-00.021400000000,   0.03200,
,,,-00.021380000000,   0.03360,
,,,-00.021360000000,   0.03520,
,,,-00.021340000000,   0.03600,
,,,-00.021320000000,   0.03680,
,,,-00.021300000000,   0.03680,
,,,-00.021280000000,   0.03760,
,,,-00.021260000000,   0.03920,
,,,-00.021240000000,   0.04000,
,,,-00.021220000000,   0.04160,
,,,-00.021200000000,   0.04240,
,,,-00.021180000000,   0.04160,
,,,-00.021160000000,   0.04240,
,,,-00.021140000000,   0.04320,
,,,-00.021120000000,   0.04480,
,,,-00.021100000000,   0.04560,
,,,-00.021080000000,   0.04640,
,,,-00.021060000000,   0.04720,
,,,-00.021040000000,   0.04640,
,,,-00.021020000000,   0.04800,
,,,-00.021000000000,   0.04880,
,,,-00.020980000000,   0.04800,
,,,-00.020960000000,   0.04960,
,,,-00.020940000000,   0.05040,
,,,-00.020920000000,   0.05040,
,,,-00.020900000000,   0.05120,
,,,-00.020880000000,   0.05280,
,,,-00.020860000000,   0.05280,
,,,-00.020840000000,   0.05360,
,,,-00.020820000000,   0.05360,
,,,-00.020800000000,   0.05360,
,,,-00.020780000000,   0.05360,
,,,-00.020760000000,   0.05520,
,,,-00.020740000000,   0.05600,
,,,-00.020720000000,   0.05520,
,,,-00.020700000000,   0.05680,
,,,-00.020680000000,   0.05600,
,,,-00.020660000000,   0.05680,
,,,-00.020640000000,   0.05840,
,,,-00.020620000000,   0.06000,
,,,-00.020600000000,   0.05760,
,,,-00.020580000000,   0.05760,
,,,-00.020560000000,   0.05760,
,,,-00.020540000000,   0.05840,
,,,-00.020520000000,   0.05840,
,,,-00.020500000000,   0.05920,
,,,-00.020480000000,   0.05840,
,,,-00.020460000000,   0.05760,
,,,-00.020440000000,   0.05760,
,,,-00.020420000000,   0.05920,
,,,-00.020400000000,   0.05840,
,,,-00.020380000000,   0.05760,
,,,-00.020360000000,   0.05920,
,,,-00.020340000000,   0.05920,
,,,-00.020320000000,   0.06000,
,,,-00.020300000000,   0.06000,
,,,-00.020280000000,   0.05840,
,,,-00.020260000000,   0.05840,
,,,-00.020240000000,   0.05840,
,,,-00.020220000000,   0.05920,
,,,-00.020200000000,   0.06080,
,,,-00.020180000000,   0.06000,
,,,-00.020160000000,   0.06160,
,,,-00.020140000000,   0.06400,
,,,-00.020120000000,   0.06160,
,,,-00.020100000000,   0.06240,
,,,-00.020080000000,   0.06240,
,,,-00.020060000000,   0.06480,
,,,-00.020040000000,   0.06320,
,,,-00.020020000000,   0.06480,
,,,-00.020000000000,   0.06560,
,,,-00.019980000000,   0.06320,
,,,-00.019960000000,   0.06480,
,,,-00.019940000000,   0.06320,
,,,-00.019920000000,   0.06480,
,,,-00.019900000000,   0.06480,
,,,-00.019880000000,   0.06560,
,,,-00.019860000000,   0.06480,
,,,-00.019840000000,   0.06480,
,,,-00.019820000000,   0.06560,
,,,-00.019800000000,   0.05920,
,,,-00.019780000000,   0.06560,
,,,-00.019760000000,   0.06560,
,,,-00.019740000000,   0.06560,
,,,-00.019720000000,   0.06480,
,,,-00.019700000000,   0.06400,
,,,-00.019680000000,   0.06480,
,,,-00.019660000000,   0.06560,
,,,-00.019640000000,   0.06400,
,,,-00.019620000000,   0.06400,
,,,-00.019600000000,   0.06480,
,,,-00.019580000000,   0.06400,
,,,-00.019560000000,   0.06320,
,,,-00.019540000000,   0.06400,
,,,-00.019520000000,   0.06320,
,,,-00.019500000000,   0.06320,
,,,-00.019480000000,   0.06400,
,,,-00.019460000000,   0.06400,
,,,-00.019440000000,   0.06400,
,,,-00.019420000000,   0.06320,
,,,-00.019400000000,   0.06320,
,,,-00.019380000000,   0.06320,
,,,-00.019360000000,   0.06320,
,,,-00.019340000000,   0.06080,
,,,-00.019320000000,   0.06320,
,,,-00.019300000000,   0.06160,
,,,-00.019280000000,   0.06080,
,,,-00.019260000000,   0.06080,
,,,-00.019240000000,   0.06160,
,,,-00.019220000000,   0.06080,
,,,-00.019200000000,   0.06080,
,,,-00.019180000000,   0.06000,
,,,-00.019160000000,   0.05920,
,,,-00.019140000000,   0.06000,
,,,-00.019120000000,   0.05920,
,,,-00.019100000000,   0.05920,
,,,-00.019080000000,   0.05840,
,,,-00.019060000000,   0.05760,
,,,-00.019040000000,   0.05920,
,,,-00.019020000000,   0.05520,
,,,-00.019000000000,   0.05520,
,,,-00.018980000000,   0.05360,
,,,-00.018960000000,   0.05440,
,,,-00.018940000000,   0.05280,
,,,-00.018920000000,   0.05360,
,,,-00.018900000000,   0.05440,
,,,-00.018880000000,   0.05360,
,,,-00.018860000000,   0.05360,
,,,-00.018840000000,   0.05120,
,,,-00.018820000000,   0.05200,
,,,-00.018800000000,   0.05120,
,,,-00.018780000000,   0.05120,
,,,-00.018760000000,   0.05280,
,,,-00.018740000000,   0.05040,
,,,-00.018720000000,   0.05040,
,,,-00.018700000000,   0.05200,
,,,-00.018680000000,   0.04880,
,,,-00.018660000000,   0.05040,
,,,-00.018640000000,   0.04800,
,,,-00.018620000000,   0.04720,
,,,-00.018600000000,   0.04560,
,,,-00.018580000000,   0.04480,
,,,-00.018560000000,   0.04560,
,,,-00.018540000000,   0.04480,
,,,-00.018520000000,   0.04480,
,,,-00.018500000000,   0.04320,
,,,-00.018480000000,   0.04240,
,,,-00.018460000000,   0.04240,
,,,-00.018440000000,   0.04080,
,,,-00.018420000000,   0.04000,
,,,-00.018400000000,   0.03920,
,,,-00.018380000000,   0.03760,
,,,-00.018360000000,   0.03760,
,,,-00.018340000000,   0.03680,
,,,-00.018320000000,   0.03760,
,,,-00.018300000000,   0.03520,
,,,-00.018280000000,   0.03520,
,,,-00.018260000000,   0.03440,
,,,-00.018240000000,   0.03440,
,,,-00.018220000000,   0.03360,
,,,-00.018200000000,   0.03360,
,,,-00.018180000000,   0.03280,
,,,-00.018160000000,   0.03120,
,,,-00.018140000000,   0.03120,
,,,-00.018120000000,   0.02960,
,,,-00.018100000000,   0.02960,
,,,-00.018080000000,   0.02800,
,,,-00.018060000000,   0.02800,
,,,-00.018040000000,   0.02720,
,,,-00.018020000000,   0.02640,
,,,-00.018000000000,   0.02560,
,,,-00.017980000000,   0.02400,
,,,-00.017960000000,   0.02400,
,,,-00.017940000000,   0.02320,
,,,-00.017920000000,   0.02240,
,,,-00.017900000000,   0.02160,
,,,-00.017880000000,   0.02080,
,,,-00.017860000000,   0.02000,
,,,-00.017840000000,   0.01840,
,,,-00.017820000000,   0.01840,
,,,-00.017800000000,   0.01680,
,,,-00.017780000000,   0.01600,
,,,-00.017760000000,   0.01520,
,,,-00.017740000000,   0.01520,
,,,-00.017720000000,   0.01440,
,,,-00.017700000000,   0.01200,
,,,-00.017680000000,   0.01200,
,,,-00.017660000000,   0.01200,
,,,-00.017640000000,   0.01120,
,,,-00.017620000000,   0.00960,
,,,-00.017600000000,   0.00960,
,,,-00.017580000000,   0.00800,
,,,-00.017560000000,   0.00800,
,,,-00.017540000000,   0.00720,
,,,-00.017520000000,   0.00400,
,,,-00.017500000000,   0.00480,
,,,-00.017480000000,   0.00320,
,,,-00.017460000000,   0.00400,
,,,-00.017440000000,   0.00240,
,,,-00.017420000000,   0.00080,
,,,-00.017400000000,   0.00160,
,,,-00.017380000000,   0.00080,
,,,-00.017360000000,  -0.00160,
,,,-00.017340000000,  -0.00240,
,,,-00.017320000000,  -0.00080,
,,,-00.017300000000,  -0.00320,
,,,-00.017280000000,  -0.00560,
,,,-00.017260000000,  -0.00480,
,,,-00.017240000000,  -0.00640,
,,,-00.017220000000,  -0.00560,
,,,-00.017200000000,  -0.00640,
,,,-00.017180000000,  -0.00800,
,,,-00.017160000000,  -0.00880,
,,,-00.017140000000,  -0.01040,
,,,-00.017120000000,  -0.01040,
,,,-00.017100000000,  -0.01040,
,,,-00.017080000000,  -0.01120,
,,,-00.017060000000,  -0.01360,
,,,-00.017040000000,  -0.01280,
,,,-00.017020000000,  -0.01440,
,,,-00.017000000000,  -0.01520,
,,,-00.016980000000,  -0.01520,
,,,-00.016960000000,  -0.01680,
,,,-00.016940000000,  -0.01760,
,,,-00.016920000000,  -0.01920,
,,,-00.016900000000,  -0.01840,
,,,-00.016880000000,  -0.02080,
,,,-00.016860000000,  -0.02160,
,,,-00.016840000000,  -0.02240,
,,,-00.016820000000,  -0.02240,
,,,-00.016800000000,  -0.02240,
,,,-00.016780000000,  -0.02320,
,,,-00.016760000000,  -0.02480,
,,,-00.016740000000,  -0.02640,
,,,-00.016720000000,  -0.02640,
,,,-00.016700000000,  -0.02800,
,,,-00.016680000000,  -0.02800,
,,,-00.016660000000,  -0.02960,
,,,-00.016640000000,  -0.03040,
,,,-00.016620000000,  -0.03040,
,,,-00.016600000000,  -0.03120,
,,,-00.016580000000,  -0.03120,
,,,-00.016560000000,  -0.03200,
,,,-00.016540000000,  -0.03440,
,,,-00.016520000000,  -0.03600,
,,,-00.016500000000,  -0.03520,
,,,-00.016480000000,  -0.03600,
,,,-00.016460000000,  -0.03760,
,,,-00.016440000000,  -0.04160,
,,,-00.016420000000,  -0.03760,
,,,-00.016400000000,  -0.03920,
,,,-00.016380000000,  -0.03920,
,,,-00.016360000000,  -0.04000,
,,,-00.016340000000,  -0.04000,
,,,-00.016320000000,  -0.04160,
,,,-00.016300000000,  -0.04080,
,,,-00.016280000000,  -0.04240,
,,,-00.016260000000,  -0.04320,
,,,-00.016240000000,  -0.04320,
,,,-00.016220000000,  -0.04320,
,,,-00.016200000000,  -0.04400,
,,,-00.016180000000,  -0.04480,
,,,-00.016160000000,  -0.04560,
,,,-00.016140000000,  -0.04560,
,,,-00.016120000000,  -0.04720,
,,,-00.016100000000,  -0.04720,
,,,-00.016080000000,  -0.04880,
,,,-00.016060000000,  -0.05120,
,,,-00.016040000000,  -0.04960,
,,,-00.016020000000,  -0.05120,
,,,-00.016000000000,  -0.05280,
,,,-00.015980000000,  -0.05360,
,,,-00.015960000000,  -0.05440,
,,,-00.015940000000,  -0.05520,
,,,-00.015920000000,  -0.05680,
,,,-00.015900000000,  -0.05680,
,,,-00.015880000000,  -0.05760,
,,,-00.015860000000,  -0.05760,
,,,-00.015840000000,  -0.05920,
,,,-00.015820000000,  -0.06000,
,,,-00.015800000000,  -0.05840,
,,,-00.015780000000,  -0.06000,
,,,-00.015760000000,  -0.06160,
,,,-00.015740000000,  -0.06160,
,,,-00.015720000000,  -0.06160,
,,,-00.015700000000,  -0.06320,
,,,-00.015680000000,  -0.06320,
,,,-00.015660000000,  -0.06400,
,,,-00.015640000000,  -0.06400,
,,,-00.015620000000,  -0.06480,
,,,-00.015600000000,  -0.06480,
,,,-00.015580000000,  -0.06560,
,,,-00.015560000000,  -0.06480,
,,,-00.015540000000,  -0.06560,
,,,-00.015520000000,  -0.06640,
,,,-00.015500000000,  -0.06640,
,,,-00.015480000000,  -0.06800,
,,,-00.015460000000,  -0.06720,
,,,-00.015440000000,  -0.06800,
,,,-00.015420000000,  -0.06800,
,,,-00.015400000000,  -0.06800,
,,,-00.015380000000,  -0.06720,
,,,-00.015360000000,  -0.06720,
,,,-00.015340000000,  -0.06800,
,,,-00.015320000000,  -0.06800,
,,,-00.015300000000,  -0.06880,
,,,-00.015280000000,  -0.06800,
,,,-00.015260000000,  -0.06880,
,,,-00.015240000000,  -0.06880,
,,,-00.015220000000,  -0.06880,
,,,-00.015200000000,  -0.06880,
,,,-00.015180000000,  -0.06960,
,,,-00.015160000000,  -0.06880,
,,,-00.015140000000,  -0.06800,
,,,-00.015120000000,  -0.06880,
,,,-00.015100000000,  -0.06880,
,,,-00.015080000000,  -0.06880,
,,,-00.015060000000,  -0.06880,
,,,-00.015040000000,  -0.06880,
,,,-00.015020000000,  -0.06800,
,,,-00.015000000000,  -0.06800,
,,,-00.014980000000,  -0.06960,
,,,-00.014960000000,  -0.06880,
,,,-00.014940000000,  -0.06960,
,,,-00.014920000000,  -0.06960,
,,,-00.014900000000,  -0.07040,
,,,-00.014880000000,  -0.06960,
,,,-00.014860000000,  -0.06960,
,,,-00.014840000000,  -0.06960,
,,,-00.014820000000,  -0.07040,
,,,-00.014800000000,  -0.07040,
,,,-00.014780000000,  -0.07040,
,,,-00.014760000000,  -0.06960,
,,,-00.014740000000,  -0.07040,
,,,-00.014720000000,  -0.07040,
,,,-00.014700000000,  -0.07120,
,,,-00.014680000000,  -0.07120,
,,,-00.014660000000,  -0.07120,
,,,-00.014640000000,  -0.07040,
,,,-00.014620000000,  -0.07040,
,,,-00.014600000000,  -0.07120,
,,,-00.014580000000,  -0.07200,
,,,-00.014560000000,  -0.07120,
,,,-00.014540000000,  -0.07200,
,,,-00.014520000000,  -0.07200,
,,,-00.014500000000,  -0.07200,
,,,-00.014480000000,  -0.07600,
,,,-00.014460000000,  -0.07920,
,,,-00.014440000000,  -0.08240,
,,,-00.014420000000,  -0.08320,
,,,-00.014400000000,  -0.08720,
,,,-00.014380000000,  -0.08720,
,,,-00.014360000000,  -0.08800,
,,,-00.014340000000,  -0.08960,
,,,-00.014320000000,  -0.08800,
,,,-00.014300000000,  -0.08800,
,,,-00.014280000000,  -0.08880,
,,,-00.014260000000,  -0.08800,
,,,-00.014240000000,  -0.08880,
,,,-00.014220000000,  -0.08880,
,,,-00.014200000000,  -0.08800,
,,,-00.014180000000,  -0.08720,
,,,-00.014160000000,  -0.08640,
,,,-00.014140000000,  -0.08560,
,,,-00.014120000000,  -0.08560,
,,,-00.014100000000,  -0.08400,
,,,-00.014080000000,  -0.08400,
,,,-00.014060000000,  -0.08400,
,,,-00.014040000000,  -0.08320,
,,,-00.014020000000,  -0.08240,
,,,-00.014000000000,  -0.08000,
,,,-00.013980000000,  -0.08000,
,,,-00.013960000000,  -0.08000,
,,,-00.013940000000,  -0.07920,
,,,-00.013920000000,  -0.07760,
,,,-00.013900000000,  -0.07680,
,,,-00.013880000000,  -0.07520,
,,,-00.013860000000,  -0.07440,
,,,-00.013840000000,  -0.07360,
,,,-00.013820000000,  -0.07200,
,,,-00.013800000000,  -0.07120,
,,,-00.013780000000,  -0.07040,
,,,-00.013760000000,  -0.07120,
,,,-00.013740000000,  -0.06960,
,,,-00.013720000000,  -0.06800,
,,,-00.013700000000,  -0.06720,
,,,-00.013680000000,  -0.06640,
,,,-00.013660000000,  -0.06560,
,,,-00.013640000000,  -0.06400,
