Data/meeting blokgolf/blokgolf 1khz stappen 1v/T0014ALL.CSV

Model,DPO2004B
Firmware Version,1.52

Point Format,Y,,,,,,,
Horizontal Units,S,,,,,,,
Horizontal Scale,0.0002,,,,,,,
Sample Interval,3.84025e-07,,,,,,,
Filter Frequency,7e+07,,,,,,,
Record Length,5207,,,,,,,
Gating,0.0% to 100.0%,,0.0% to 100.0%,,0.0% to 100.0%,,0.0% to 100.0%,
Probe Attenuation,1,,10,,10,,10,
Vertical Units,V,,V,,V,,V,
Vertical Offset,0,,0,,0,,0,
Vertical Scale,5,,1,,1,,1,
Label,,,,,,,,
TIME,CH1,CH1 Peak Detect,CH2,CH2 Peak Detect,CH3,CH3 Peak Detect,CH4,CH4 Peak Detect
-9.998e-04,6.5,6.5,0.62,0.46,2.36,2.36,2.66,2.66
-9.995e-04,6.7,6.9,0.62,0.66,2.48,2.56,2.78,2.86
-9.991e-04,6.7,6.5,0.5,0.06,2.56,2.52,2.86,2.82
-9.987e-04,6.7,6.9,0.3,0.5,2.6,2.6,2.86,2.9
-9.983e-04,6.7,6.7,0.06,-0.3,2.56,2.52,2.86,2.82
-9.979e-04,6.7,6.9,-0.14,0.1,2.56,2.6,2.9,2.9
-9.975e-04,6.7,6.7,-0.3,-0.62,2.56,2.44,2.86,2.74
-9.972e-04,6.7,6.9,-0.46,-0.3,2.52,2.56,2.78,2.86
-9.968e-04,6.7,6.7,-0.62,-0.82,2.48,2.36,2.78,2.66
-9.964e-04,6.9,6.9,-0.7,-0.58,2.44,2.48,2.74,2.82
-9.960e-04,6.7,6.7,-0.82,-0.98,2.4,2.28,2.7,2.62
-9.956e-04,6.7,6.9,-0.9,-0.78,2.36,2.4,2.66,2.74
-9.952e-04,6.7,6.7,-0.98,-1.06,2.32,2.16,2.62,2.5
-9.948e-04,6.7,6.9,-1.02,-0.94,2.28,2.36,2.62,2.66
-9.945e-04,6.9,6.7,-1.02,-1.1,2.2,2.08,2.54,2.42
-9.941e-04,6.7,6.9,-1.06,-0.98,2.16,2.2,2.46,2.54
-9.937e-04,6.9,6.7,-0.98,-0.98,2.08,2,2.42,2.34
-9.933e-04,6.7,6.9,-0.86,-0.78,2.08,2.12,2.42,2.46
-9.929e-04,6.9,6.7,-0.78,-0.82,2.04,1.96,2.38,2.3
-9.925e-04,6.9,6.9,-0.7,-0.62,2,2.04,2.34,2.38
-9.922e-04,6.9,6.7,-0.66,-0.66,1.96,1.88,2.3,2.22
-9.918e-04,6.9,7.1,-0.58,-0.54,1.92,2,2.3,2.34
-9.914e-04,6.9,6.7,-0.54,-0.58,1.92,1.8,2.26,2.14
-9.910e-04,6.9,7.1,-0.54,-0.5,1.88,1.92,2.22,2.26
-9.906e-04,6.9,6.7,-0.5,-0.54,1.84,1.72,2.18,2.1
-9.902e-04,6.9,7.1,-0.5,-0.46,1.8,1.84,2.14,2.22
-9.899e-04,6.7,6.7,-0.5,-0.5,1.8,1.68,2.1,2.02
-9.895e-04,6.9,7.1,-0.5,-0.46,1.72,1.8,2.1,2.14
-9.891e-04,6.9,6.7,-0.5,-0.5,1.72,1.6,2.06,1.94
-9.887e-04,6.7,7.1,-0.46,-0.46,1.68,1.72,2.02,2.06
-9.883e-04,6.9,6.7,-0.5,-0.5,1.64,1.56,2.02,1.9
-9.879e-04,6.7,7.1,-0.5,-0.46,1.6,1.64,1.98,2.02
-9.876e-04,6.9,6.7,-0.5,-0.54,1.56,1.48,1.94,1.86
-9.872e-04,6.9,7.1,-0.5,-0.46,1.52,1.6,1.9,1.98
-9.868e-04,6.9,6.7,-0.5,-0.54,1.56,1.44,1.9,1.82
-9.864e-04,6.9,7.1,-0.5,-0.46,1.48,1.56,1.86,1.9
-9.860e-04,6.9,6.7,-0.5,-0.54,1.44,1.4,1.82,1.74
-9.856e-04,6.9,7.1,-0.5,-0.46,1.4,1.48,1.78,1.86
-9.852e-04,6.9,6.7,-0.5,-0.54,1.4,1.32,1.78,1.66
-9.849e-04,6.9,7.1,-0.5,-0.46,1.36,1.44,1.74,1.78
-9.845e-04,6.9,6.7,-0.5,-0.54,1.36,1.28,1.74,1.62
-9.841e-04,6.9,7.1,-0.54,-0.46,1.32,1.36,1.7,1.74
-9.837e-04,6.9,6.7,-0.5,-0.54,1.28,1.24,1.66,1.58
-9.833e-04,6.9,7.1,-0.5,-0.5,1.28,1.32,1.66,1.7
-9.829e-04,6.9,6.9,-0.5,-0.54,1.24,1.16,1.62,1.54
-9.826e-04,6.9,7.1,-0.5,-0.5,1.24,1.28,1.62,1.66
-9.822e-04,6.9,6.7,-0.54,-0.54,1.24,1.12,1.58,1.5
-9.818e-04,6.9,7.1,-0.5,-0.5,1.2,1.24,1.54,1.58
-9.814e-04,6.9,6.7,-0.54,-0.54,1.16,1.08,1.54,1.46
-9.810e-04,6.9,7.1,-0.54,-0.5,1.12,1.16,1.54,1.54
-9.806e-04,6.9,6.7,-0.54,-0.58,1.12,1.04,1.5,1.42
-9.803e-04,6.9,7.1,-0.5,-0.5,1.08,1.12,1.46,1.5
-9.799e-04,6.9,6.7,-0.54,-0.58,1.08,1,1.46,1.38
-9.795e-04,6.9,7.1,-0.54,-0.5,1.04,1.08,1.46,1.46
-9.791e-04,6.9,6.9,-0.54,-0.58,1.04,0.96,1.42,1.34
-9.787e-04,6.9,7.1,-0.54,-0.5,1,1.04,1.42,1.42
-9.783e-04,6.9,6.7,-0.54,-0.58,0.96,0.92,1.38,1.3
-9.780e-04,6.9,7.1,-0.54,-0.54,0.96,1,1.34,1.38
-9.776e-04,6.9,6.9,-0.54,-0.58,0.92,0.88,1.34,1.26
-9.772e-04,6.9,7.1,-0.54,-0.54,0.92,1,1.34,1.34
-9.768e-04,6.9,6.7,-0.54,-0.58,0.92,0.88,1.3,1.22
-9.764e-04,6.9,7.1,-0.58,-0.54,0.88,0.92,1.3,1.3
-9.760e-04,6.9,6.9,-0.54,-0.58,0.88,0.84,1.26,1.18
-9.756e-04,6.9,7.1,-0.58,-0.54,0.88,0.92,1.26,1.3
-9.753e-04,6.9,6.7,-0.54,-0.58,0.84,0.8,1.22,1.14
-9.749e-04,6.9,7.1,-0.54,-0.54,0.8,0.88,1.22,1.26
-9.745e-04,6.9,6.7,-0.58,-0.62,0.8,0.76,1.18,1.14
-9.741e-04,6.9,7.1,-0.58,-0.54,0.8,0.84,1.18,1.22
-9.737e-04,6.9,6.7,-0.58,-0.62,0.8,0.72,1.14,1.1
-9.733e-04,6.9,7.1,-0.58,-0.54,0.76,0.8,1.14,1.18
-9.730e-04,6.9,6.7,-0.58,-0.62,0.76,0.68,1.14,1.06
-9.726e-04,6.9,7.1,-0.58,-0.54,0.72,0.76,1.14,1.14
-9.722e-04,6.9,6.7,-0.58,-0.62,0.72,0.68,1.1,1.02
-9.718e-04,6.9,7.1,-0.58,-0.54,0.72,0.76,1.06,1.1
-9.714e-04,6.9,6.7,-0.58,-0.62,0.72,0.64,1.06,1.02
-9.710e-04,6.9,7.1,-0.58,-0.54,0.72,0.72,1.06,1.1
-9.707e-04,6.9,6.9,-0.58,-0.62,0.68,0.6,1.06,0.98
-9.703e-04,6.9,7.1,-0.58,-0.54,0.64,0.68,1.02,1.06
-9.699e-04,6.9,6.9,-0.58,-0.62,0.64,0.56,1.02,0.94
-9.695e-04,6.9,7.1,-0.58,-0.54,0.64,0.68,0.98,1.02
-9.691e-04,6.9,6.9,-0.58,-0.62,0.6,0.56,0.98,0.9
-9.687e-04,6.9,7.1,-0.58,-0.54,0.6,0.64,0.94,0.98
-9.683e-04,7.1,6.9,-0.58,-0.62,0.6,0.52,0.94,0.9
-9.680e-04,6.9,7.1,-0.58,-0.54,0.6,0.6,0.94,0.98
-9.676e-04,6.9,6.7,-0.62,-0.62,0.56,0.48,0.94,0.9
-9.672e-04,6.9,7.1,-0.58,-0.58,0.56,0.6,0.94,0.98
-9.668e-04,6.9,6.9,-0.58,-0.62,0.52,0.48,0.9,0.86
-9.664e-04,6.9,7.1,-0.58,-0.58,0.52,0.56,0.9,0.94
-9.660e-04,6.9,6.7,-0.58,-0.62,0.52,0.44,0.9,0.82
-9.657e-04,6.9,7.1,-0.62,-0.58,0.48,0.56,0.86,0.9
-9.653e-04,7.1,6.7,-0.58,-0.62,0.52,0.44,0.86,0.82
-9.649e-04,6.9,7.1,-0.62,-0.58,0.48,0.52,0.86,0.9
-9.645e-04,6.9,6.7,-0.62,-0.62,0.44,0.4,0.86,0.78
-9.641e-04,6.9,7.1,-0.62,-0.58,0.48,0.48,0.82,0.86
-9.637e-04,6.9,6.7,-0.58,-0.62,0.44,0.4,0.82,0.78
-9.634e-04,6.9,7.1,-0.62,-0.58,0.44,0.48,0.78,0.82
-9.630e-04,6.9,6.7,-0.62,-0.62,0.44,0.36,0.78,0.74
-9.626e-04,6.9,7.1,-0.58,-0.58,0.4,0.44,0.78,0.82
-9.622e-04,6.9,6.9,-0.62,-0.66,0.36,0.36,0.78,0.74
-9.618e-04,6.9,7.1,-0.62,-0.58,0.4,0.44,0.74,0.82
-9.614e-04,6.9,6.7,-0.62,-0.66,0.4,0.32,0.78,0.7
-9.611e-04,6.9,7.1,-0.62,-0.58,0.4,0.4,0.74,0.78
-9.607e-04,6.9,6.7,-0.62,-0.66,0.4,0.32,0.74,0.7
-9.603e-04,6.9,7.1,-0.62,-0.58,0.36,0.4,0.74,0.78
-9.599e-04,6.9,6.9,-0.62,-0.66,0.36,0.32,0.7,0.66
-9.595e-04,6.9,7.1,-0.62,-0.58,0.36,0.4,0.74,0.74
-9.591e-04,6.9,6.9,-0.62,-0.66,0.32,0.28,0.7,0.66
-9.587e-04,6.9,7.1,-0.62,-0.58,0.32,0.36,0.7,0.74
-9.584e-04,6.9,6.9,-0.62,-0.66,0.32,0.28,0.7,0.62
-9.580e-04,6.9,7.1,-0.62,-0.58,0.32,0.36,0.7,0.74
-9.576e-04,6.9,6.9,-0.62,-0.66,0.32,0.24,0.7,0.62
-9.572e-04,6.9,7.1,-0.62,-0.58,0.32,0.32,0.7,0.7
-9.568e-04,6.9,6.9,-0.62,-0.66,0.28,0.24,0.66,0.62
-9.564e-04,6.9,7.1,-0.62,-0.58,0.28,0.32,0.66,0.7
-9.561e-04,6.9,6.9,-0.62,-0.66,0.28,0.24,0.66,0.58
-9.557e-04,6.9,7.1,-0.62,-0.58,0.28,0.32,0.66,0.66
-9.553e-04,6.9,6.7,-0.62,-0.66,0.28,0.2,0.62,0.58
-9.549e-04,6.9,7.1,-0.62,-0.62,0.28,0.28,0.62,0.66
-9.545e-04,6.9,6.9,-0.66,-0.66,0.24,0.2,0.62,0.58
-9.541e-04,6.9,7.1,-0.62,-0.62,0.24,0.28,0.62,0.62
-9.538e-04,6.9,6.9,-0.66,-0.66,0.24,0.2,0.62,0.54
-9.534e-04,6.9,7.1,-0.62,-0.58,0.24,0.28,0.62,0.62
-9.530e-04,6.9,6.7,-0.62,-0.66,0.24,0.16,0.62,0.54
-9.526e-04,6.9,7.1,-0.66,-0.62,0.24,0.24,0.58,0.62
-9.522e-04,6.9,6.9,-0.62,-0.66,0.2,0.16,0.58,0.54
-9.518e-04,6.9,7.1,-0.62,-0.62,0.2,0.24,0.54,0.62
-9.515e-04,6.9,6.7,-0.62,-0.66,0.2,0.16,0.58,0.5
-9.511e-04,6.9,7.1,-0.66,-0.62,0.2,0.24,0.54,0.58
-9.507e-04,6.9,6.7,-0.62,-0.66,0.2,0.16,0.58,0.5
-9.503e-04,6.9,7.1,-0.66,-0.62,0.16,0.2,0.54,0.58
-9.499e-04,6.9,6.9,-0.66,-0.66,0.16,0.12,0.54,0.5
-9.495e-04,6.9,7.1,-0.62,-0.62,0.16,0.2,0.54,0.58
-9.491e-04,6.9,6.7,-0.66,-0.66,0.16,0.12,0.5,0.46
-9.488e-04,6.9,7.1,-0.66,-0.62,0.16,0.2,0.54,0.54
-9.484e-04,6.9,6.9,-0.62,-0.66,0.16,0.12,0.54,0.46
-9.480e-04,6.9,7.1,-0.62,-0.62,0.16,0.16,0.54,0.54
-9.476e-04,6.9,6.9,-0.66,-0.66,0.16,0.12,0.5,0.46
-9.472e-04,6.9,7.1,-0.62,-0.58,0.16,0.16,0.5,0.54
-9.468e-04,6.9,6.9,-0.62,-0.66,0.12,0.08,0.5,0.46
-9.465e-04,6.9,7.1,-0.62,-0.62,0.12,0.16,0.5,0.54
-9.461e-04,6.9,6.9,-0.66,-0.66,0.12,0.08,0.46,0.42
-9.457e-04,6.9,7.1,-0.62,-0.62,0.12,0.16,0.5,0.5
-9.453e-04,6.9,6.9,-0.66,-0.66,0.12,0.08,0.5,0.42
-9.449e-04,6.9,7.1,-0.66,-0.62,0.12,0.16,0.46,0.5
-9.445e-04,6.9,6.9,-0.62,-0.66,0.12,0.08,0.46,0.42
-9.442e-04,6.9,7.1,-0.66,-0.62,0.12,0.16,0.46,0.5
-9.438e-04,6.9,6.9,-0.66,-0.66,0.12,0.08,0.46,0.42
-9.434e-04,6.9,7.1,-0.62,-0.62,0.12,0.16,0.46,0.46
-9.430e-04,6.9,6.7,-0.66,-0.66,0.08,0.04,0.46,0.42
-9.426e-04,6.9,7.1,-0.66,-0.62,0.08,0.12,0.42,0.46
-9.422e-04,6.9,6.7,-0.66,-0.66,0.08,0.04,0.42,0.38
-9.419e-04,6.9,7.1,-0.62,-0.62,0.08,0.12,0.42,0.46
-9.415e-04,6.9,6.9,-0.66,-0.66,0.08,0.04,0.42,0.38
-9.411e-04,6.9,7.1,-0.66,-0.62,0.08,0.12,0.46,0.46
-9.407e-04,6.9,6.9,-0.66,-0.7,0.08,0.04,0.42,0.38
-9.403e-04,6.9,7.1,-0.62,-0.62,0.08,0.08,0.42,0.46
-9.399e-04,6.9,6.9,-0.66,-0.7,0.08,-8.9407e-10,0.42,0.38
-9.395e-04,6.9,7.1,-0.66,-0.62,0.04,0.08,0.42,0.42
-9.392e-04,6.9,6.7,-0.62,-0.7,0.04,0.04,0.42,0.38
-9.388e-04,6.9,7.1,-0.66,-0.62,0.08,0.08,0.38,0.42
-9.384e-04,6.9,6.9,-0.66,-0.7,0.08,-8.9407e-10,0.42,0.38
-9.380e-04,6.9,7.1,-0.66,-0.62,0.04,0.08,0.42,0.42
-9.376e-04,6.9,6.9,-0.66,-0.66,0.04,-8.9407e-10,0.42,0.34
-9.372e-04,6.9,7.1,-0.66,-0.62,0.04,0.08,0.42,0.42
-9.369e-04,6.9,6.7,-0.66,-0.7,0.04,-8.9407e-10,0.38,0.34
-9.365e-04,7.1,7.1,-0.66,-0.62,0.04,0.08,0.38,0.42
-9.361e-04,6.9,6.9,-0.66,-0.7,0.04,-8.9407e-10,0.38,0.34
-9.357e-04,6.9,7.1,-0.66,-0.62,0.04,0.08,0.38,0.42
-9.353e-04,6.9,6.9,-0.66,-0.7,0.04,-8.9407e-10,0.38,0.34
-9.349e-04,6.9,7.1,-0.66,-0.62,0.04,0.04,0.38,0.42
-9.346e-04,6.9,6.9,-0.66,-0.7,-8.9407e-10,-8.9407e-10,0.38,0.34
-9.342e-04,6.9,7.1,-0.66,-0.62,0.04,0.04,0.38,0.38
-9.338e-04,6.9,6.9,-0.66,-0.7,-8.9407e-10,-8.9407e-10,0.34,0.34
-9.334e-04,6.9,7.1,-0.66,-0.62,-8.9407e-10,0.04,0.38,0.38
-9.330e-04,6.9,6.7,-0.66,-0.7,0.04,-0.04,0.34,0.3
-9.326e-04,6.9,7.1,-0.66,-0.62,-8.9407e-10,0.04,0.34,0.38
-9.323e-04,6.9,6.9,-0.7,-0.7,-8.9407e-10,-0.04,0.34,0.3
-9.319e-04,6.9,7.1,-0.66,-0.62,-8.9407e-10,0.04,0.38,0.38
-9.315e-04,6.9,6.9,-0.66,-0.7,-8.9407e-10,-0.04,0.34,0.3
-9.311e-04,6.9,7.1,-0.66,-0.62,-8.9407e-10,0.04,0.34,0.38
-9.307e-04,7.1,6.9,-0.66,-0.7,-8.9407e-10,-0.04,0.34,0.3
-9.303e-04,6.9,7.1,-0.66,-0.62,-8.9407e-10,0.04,0.34,0.38
-9.299e-04,6.9,6.7,-0.66,-0.7,-8.9407e-10,-0.04,0.34,0.3
-9.296e-04,6.9,7.1,-0.66,-0.62,-8.9407e-10,0.04,0.34,0.38
-9.292e-04,6.9,6.9,-0.66,-0.7,-8.9407e-10,-0.04,0.34,0.3
-9.288e-04,6.9,7.1,-0.66,-0.62,-8.9407e-10,0.04,0.34,0.34
-9.284e-04,6.9,6.9,-0.66,-0.7,-8.9407e-10,-0.04,0.34,0.3
-9.280e-04,6.9,7.1,-0.66,-0.62,-0.04,0.04,0.34,0.34
-9.276e-04,7.1,6.9,-0.66,-0.7,-8.9407e-10,-0.04,0.34,0.26
-9.273e-04,6.9,7.1,-0.66,-0.62,-8.9407e-10,-8.9407e-10,0.3,0.34
-9.269e-04,6.9,6.9,-0.66,-0.7,-8.9407e-10,-0.04,0.34,0.26
-9.265e-04,6.9,7.1,-0.66,-0.62,-0.04,-8.9407e-10,0.3,0.34
-9.261e-04,6.9,6.9,-0.66,-0.7,-8.9407e-10,-0.08,0.3,0.26
-9.257e-04,6.9,7.1,-0.66,-0.62,-0.04,-8.9407e-10,0.3,0.34
-9.253e-04,7.1,6.9,-0.66,-0.7,-0.04,-0.08,0.3,0.26
-9.250e-04,6.9,7.1,-0.66,-0.62,-8.9407e-10,-8.9407e-10,0.3,0.34
-9.246e-04,6.9,6.9,-0.66,-0.7,-0.04,-0.08,0.3,0.26
-9.242e-04,6.9,7.1,-0.66,-0.62,-0.04,-8.9407e-10,0.3,0.34
-9.238e-04,6.9,6.9,-0.66,-0.7,-0.04,-0.08,0.3,0.26
-9.234e-04,6.9,7.1,-0.66,-0.62,-0.04,-8.9407e-10,0.3,0.34
-9.230e-04,6.9,6.9,-0.66,-0.7,-8.9407e-10,-0.08,0.26,0.26
-9.227e-04,6.9,7.1,-0.66,-0.62,-8.9407e-10,-8.9407e-10,0.3,0.34
-9.223e-04,6.9,6.9,-0.66,-0.7,-0.04,-0.08,0.3,0.26
-9.219e-04,6.9,7.1,-0.66,-0.62,-0.04,-8.9407e-10,0.3,0.34
-9.215e-04,7.1,6.9,-0.66,-0.7,-0.04,-0.08,0.3,0.26
-9.211e-04,7.1,7.1,-0.66,-0.62,-0.04,-8.9407e-10,0.3,0.3
-9.207e-04,6.9,6.9,-0.66,-0.7,-0.04,-0.08,0.3,0.22
-9.203e-04,6.9,7.1,-0.66,-0.62,-0.04,-8.9407e-10,0.3,0.3
-9.200e-04,6.9,6.9,-0.66,-0.7,-0.04,-0.08,0.26,0.22
-9.196e-04,6.9,7.1,-0.66,-0.62,-0.04,-0.04,0.26,0.3
-9.192e-04,6.9,6.9,-0.66,-0.7,-0.04,-0.08,0.3,0.22
-9.188e-04,6.9,7.1,-0.66,-0.62,-0.04,-8.9407e-10,0.3,0.3
-9.184e-04,6.9,6.7,-0.66,-0.7,-0.08,-0.08,0.26,0.22
-9.180e-04,7.1,7.1,-0.66,-0.62,-0.04,-8.9407e-10,0.26,0.3
-9.177e-04,6.9,6.9,-0.66,-0.7,-0.04,-0.08,0.26,0.22
-9.173e-04,6.9,7.1,-0.66,-0.62,-0.04,-0.04,0.26,0.3
-9.169e-04,6.9,6.9,-0.66,-0.7,-0.04,-0.08,0.26,0.22
-9.165e-04,6.9,7.1,-0.66,-0.62,-0.04,-8.9407e-10,0.3,0.3
-9.161e-04,6.9,6.7,-0.66,-0.7,-0.08,-0.12,0.26,0.22
-9.157e-04,6.9,7.1,-0.7,-0.62,-0.04,-0.04,0.26,0.3
-9.154e-04,6.9,6.9,-0.66,-0.7,-0.08,-0.08,0.26,0.22
-9.150e-04,6.9,7.1,-0.66,-0.62,-0.04,-0.04,0.26,0.3
-9.146e-04,7.1,6.9,-0.66,-0.7,-0.08,-0.08,0.26,0.22
-9.142e-04,6.9,7.1,-0.66,-0.62,-0.04,-0.04,0.26,0.3
-9.138e-04,7.1,6.9,-0.66,-0.7,-0.08,-0.12,0.26,0.22
-9.134e-04,6.9,7.1,-0.66,-0.62,-0.08,-0.04,0.26,0.26
-9.131e-04,6.9,6.9,-0.66,-0.7,-0.08,-0.12,0.26,0.22
-9.127e-04,6.9,7.1,-0.66,-0.62,-0.08,-0.04,0.26,0.26
-9.123e-04,6.9,6.9,-0.66,-0.7,-0.08,-0.12,0.26,0.22
-9.119e-04,6.9,7.1,-0.66,-0.62,-0.08,-0.04,0.26,0.26
-9.115e-04,6.9,6.7,-0.66,-0.7,-0.08,-0.12,0.26,0.18
-9.111e-04,6.9,7.1,-0.66,-0.62,-0.08,-0.04,0.26,0.26
-9.107e-04,6.9,6.9,-0.66,-0.7,-0.08,-0.12,0.26,0.18
-9.104e-04,7.1,7.1,-0.66,-0.62,-0.04,-0.04,0.26,0.26
-9.100e-04,6.9,6.9,-0.66,-0.7,-0.08,-0.12,0.26,0.18
-9.096e-04,6.9,7.1,-0.66,-0.62,-0.08,-0.04,0.26,0.26
-9.092e-04,6.9,6.9,-0.66,-0.7,-0.08,-0.12,0.22,0.18
-9.088e-04,6.9,7.1,-0.7,-0.66,-0.08,-0.04,0.26,0.26
-9.084e-04,6.9,6.9,-0.7,-0.7,-0.08,-0.12,0.26,0.18
-9.081e-04,6.9,7.1,-0.7,-0.62,-0.08,-0.04,0.22,0.26
-9.077e-04,6.9,6.9,-0.66,-0.7,-0.08,-0.12,0.26,0.18
-9.073e-04,7.1,7.1,-0.66,-0.62,-0.08,-0.04,0.26,0.26
-9.069e-04,6.9,6.9,-0.66,-0.7,-0.08,-0.12,0.22,0.18
-9.065e-04,6.9,7.1,-0.66,-0.62,-0.08,-0.04,0.22,0.26
-9.061e-04,6.9,6.9,-0.66,-0.7,-0.08,-0.12,0.22,0.18
-9.058e-04,7.1,7.1,-0.66,-0.62,-0.08,-0.04,0.22,0.26
-9.054e-04,6.9,6.9,-0.66,-0.7,-0.08,-0.12,0.22,0.18
-9.050e-04,6.9,7.1,-0.66,-0.62,-0.08,-0.04,0.22,0.26
-9.046e-04,6.9,6.9,-0.66,-0.7,-0.08,-0.12,0.22,0.18
-9.042e-04,6.9,7.1,-0.66,-0.62,-0.08,-0.08,0.26,0.26
-9.038e-04,6.9,6.9,-0.66,-0.7,-0.08,-0.12,0.22,0.18
-9.034e-04,7.1,7.1,-0.66,-0.62,-0.08,-0.04,0.22,0.26
-9.031e-04,6.9,6.9,-0.66,-0.7,-0.12,-0.12,0.22,0.18
-9.027e-04,6.9,7.1,-0.66,-0.62,-0.08,-0.08,0.22,0.26
-9.023e-04,6.9,6.7,-0.66,-0.7,-0.08,-0.12,0.22,0.18
-9.019e-04,7.1,7.1,-0.66,-0.62,-0.12,-0.04,0.26,0.26
-9.015e-04,6.9,6.9,-0.66,-0.7,-0.08,-0.12,0.22,0.18
-9.011e-04,6.9,7.1,-0.66,-0.62,-0.08,-0.08,0.22,0.26
-9.008e-04,6.9,6.7,-0.7,-0.7,-0.08,-0.12,0.22,0.18
-9.004e-04,6.9,7.1,-0.66,-0.62,-0.12,-0.04,0.22,0.26
-9.000e-04,6.9,6.9,-0.66,-0.7,-0.08,-0.12,0.22,0.18
-8.996e-04,6.9,7.1,-0.66,-0.62,-0.08,-0.04,0.22,0.26
-8.992e-04,7.1,6.9,-0.66,-0.7,-0.08,-0.12,0.22,0.14
-8.988e-04,6.9,7.1,-0.66,-0.62,-0.08,-0.08,0.22,0.26
-8.985e-04,6.9,6.9,-0.66,-0.7,-0.08,-0.12,0.22,0.18
-8.981e-04,7.1,7.1,-0.66,-0.62,-0.08,-0.08,0.22,0.26
-8.977e-04,7.1,6.9,-0.66,-0.7,-0.12,-0.12,0.22,0.14
-8.973e-04,7.1,7.1,-0.66,-0.62,-0.12,-0.04,0.22,0.22
-8.969e-04,7.1,6.9,-0.66,-0.7,-0.12,-0.12,0.22,0.14
-8.965e-04,6.9,7.1,-0.66,-0.62,-0.08,-0.08,0.22,0.22
-8.962e-04,6.9,6.9,-0.66,-0.7,-0.12,-0.12,0.22,0.14
-8.958e-04,6.9,7.1,-0.66,-0.62,-0.12,-0.08,0.22,0.22
-8.954e-04,6.9,6.9,-0.66,-0.7,-0.08,-0.12,0.22,0.14
-8.950e-04,6.9,7.1,-0.66,-0.62,-0.12,-0.08,0.22,0.22
-8.946e-04,6.9,6.9,-0.66,-0.7,-0.12,-0.12,0.22,0.14
-8.942e-04,6.9,7.1,-0.7,-0.62,-0.12,-0.08,0.18,0.22
-8.938e-04,7.1,6.9,-0.66,-0.7,-0.08,-0.12,0.18,0.14
-8.935e-04,6.9,7.1,-0.66,-0.62,-0.08,-0.08,0.22,0.22
-8.931e-04,6.9,6.9,-0.66,-0.7,-0.08,-0.12,0.22,0.14
-8.927e-04,6.9,7.1,-0.66,-0.62,-0.12,-0.08,0.22,0.22
-8.923e-04,6.9,6.9,-0.66,-0.7,-0.12,-0.16,0.22,0.14
-8.919e-04,7.1,7.1,-0.7,-0.62,-0.12,-0.08,0.18,0.22
-8.915e-04,7.1,6.9,-0.66,-0.7,-0.12,-0.12,0.22,0.14
-8.912e-04,6.9,7.1,-0.66,-0.66,-0.12,-0.08,0.22,0.22
-8.908e-04,6.9,6.9,-0.66,-0.7,-0.08,-0.12,0.18,0.14
-8.904e-04,6.9,7.1,-0.66,-0.62,-0.08,-0.08,0.18,0.22
-8.900e-04,7.1,6.9,-0.66,-0.7,-0.08,-0.12,0.18,0.14
-8.896e-04,7.1,7.1,-0.66,-0.62,-0.08,-0.08,0.18,0.22
-8.892e-04,6.9,6.9,-0.66,-0.7,-0.12,-0.12,0.22,0.14
-8.889e-04,6.9,7.1,-0.66,-0.62,-0.08,-0.08,0.22,0.22
-8.885e-04,7.1,6.9,-0.66,-0.7,-0.08,-0.12,0.18,0.14
-8.881e-04,7.1,7.1,-0.66,-0.62,-0.08,-0.08,0.22,0.22
-8.877e-04,6.9,6.9,-0.66,-0.7,-0.12,-0.12,0.18,0.14
-8.873e-04,6.9,7.1,-0.66,-0.62,-0.12,-0.08,0.18,0.22
-8.869e-04,7.1,6.9,-0.66,-0.7,-0.08,-0.16,0.18,0.14
-8.866e-04,6.9,7.1,-0.7,-0.62,-0.12,-0.08,0.18,0.22
-8.862e-04,6.9,6.9,-0.66,-0.7,-0.08,-0.12,0.18,0.14
-8.858e-04,6.9,7.1,-0.7,-0.62,-0.12,-0.08,0.18,0.22
-8.854e-04,7.1,6.9,-0.66,-0.7,-0.12,-0.16,0.18,0.14
-8.850e-04,6.9,7.1,-0.66,-0.62,-0.12,-0.08,0.18,0.22
-8.846e-04,6.9,6.9,-0.66,-0.7,-0.12,-0.12,0.18,0.14
-8.842e-04,7.1,7.1,-0.66,-0.62,-0.12,-0.08,0.22,0.22
-8.839e-04,6.9,6.9,-0.66,-0.7,-0.08,-0.12,0.18,0.14
-8.835e-04,7.1,7.1,-0.66,-0.62,-0.08,-0.08,0.18,0.22
-8.831e-04,7.1,6.9,-0.66,-0.7,-0.08,-0.12,0.18,0.14
-8.827e-04,6.9,7.1,-0.66,-0.62,-0.08,-0.08,0.18,0.22
-8.823e-04,6.9,6.9,-0.66,-0.7,-0.12,-0.16,0.18,0.1
-8.819e-04,7.1,7.1,-0.66,-0.62,-0.08,-0.08,0.18,0.22
-8.816e-04,6.9,6.9,-0.66,-0.7,-0.12,-0.16,0.18,0.14
-8.812e-04,6.9,7.1,-0.66,-0.62,-0.12,-0.08,0.18,0.18
-8.808e-04,6.9,6.9,-0.66,-0.7,-0.12,-0.16,0.18,0.14
-8.804e-04,6.9,7.1,-0.66,-0.62,-0.12,-0.08,0.18,0.22
-8.800e-04,7.1,6.9,-0.66,-0.7,-0.12,-0.16,0.14,0.1
-8.796e-04,6.9,7.1,-0.66,-0.62,-0.12,-0.08,0.14,0.22
-8.793e-04,6.9,6.9,-0.66,-0.7,-0.12,-0.16,0.14,0.14
-8.789e-04,6.9,7.1,-0.66,-0.62,-0.12,-0.08,0.18,0.22
-8.785e-04,6.9,6.9,-0.66,-0.7,-0.12,-0.16,0.18,0.14
-8.781e-04,6.9,7.1,-0.66,-0.62,-0.12,-0.08,0.18,0.18
-8.777e-04,6.9,6.9,-0.66,-0.7,-0.08,-0.16,0.18,0.14
-8.773e-04,6.9,7.1,-0.66,-0.62,-0.08,-0.08,0.18,0.22
-8.770e-04,6.9,6.9,-0.66,-0.7,-0.12,-0.16,0.18,0.1
-8.766e-04,6.9,7.1,-0.66,-0.66,-0.08,-0.08,0.18,0.22
-8.762e-04,7.1,6.9,-0.66,-0.7,-0.12,-0.16,0.18,0.1
-8.758e-04,7.1,7.1,-0.66,-0.62,-0.12,-0.08,0.14,0.18
-8.754e-04,7.1,6.9,-0.66,-0.7,-0.12,-0.16,0.18,0.1
-8.750e-04,6.9,7.1,-0.62,-0.62,-0.12,-0.08,0.18,0.22
-8.746e-04,6.9,6.9,-0.66,-0.7,-0.08,-0.12,0.18,0.1
-8.743e-04,6.9,7.1,-0.66,-0.62,-0.12,-0.08,0.18,0.18
-8.739e-04,6.9,6.9,-0.66,-0.7,-0.12,-0.16,0.18,0.1
-8.735e-04,6.9,7.1,-0.66,-0.62,-0.12,-0.08,0.14,0.22
-8.731e-04,6.9,6.9,-0.66,-0.7,-0.12,-0.16,0.18,0.1
-8.727e-04,6.9,7.1,-0.66,-0.62,-0.12,-0.08,0.18,0.18
-8.723e-04,6.9,6.9,-0.66,-0.7,-0.12,-0.16,0.14,0.1
-8.720e-04,7.1,7.1,-0.66,-0.62,-0.12,-0.08,0.18,0.18
-8.716e-04,7.1,6.9,-0.66,-0.7,-0.12,-0.12,0.18,0.1
-8.712e-04,7.1,7.1,-0.66,-0.62,-0.12,-0.08,0.18,0.18
-8.708e-04,6.9,6.9,-0.66,-0.7,-0.08,-0.16,0.18,0.1
-8.704e-04,7.1,7.1,-0.66,-0.62,-0.12,-0.08,0.18,0.18
-8.700e-04,6.9,6.9,-0.66,-0.7,-0.12,-0.16,0.18,0.1
-8.697e-04,6.9,7.1,-0.66,-0.62,-0.08,-0.08,0.18,0.22
-8.693e-04,7.1,6.9,-0.66,-0.7,-0.12,-0.16,0.14,0.1
-8.689e-04,6.9,7.1,-0.66,-0.62,-0.12,-0.08,0.18,0.18
-8.685e-04,6.9,6.9,-0.66,-0.7,-0.12,-0.16,0.14,0.1
-8.681e-04,6.9,7.1,-0.66,-0.66,-0.12,-0.08,0.18,0.18
-8.677e-04,6.9,6.9,-0.66,-0.74,-0.12,-0.12,0.14,0.1
-8.674e-04,6.9,7.1,-0.66,-0.66,-0.08,-0.08,0.18,0.18
-8.670e-04,6.9,6.9,-0.66,-0.7,-0.12,-0.16,0.14,0.1
-8.666e-04,6.9,7.1,-0.66,-0.62,-0.12,-0.08,0.14,0.18
-8.662e-04,6.9,6.9,-0.66,-0.7,-0.12,-0.16,0.18,0.1
-8.658e-04,7.1,7.1,-0.66,-0.62,-0.08,-0.08,0.14,0.18
-8.654e-04,6.9,6.9,-0.66,-0.7,-0.08,-0.16,0.14,0.1
-8.650e-04,6.9,7.1,-0.66,-0.62,-0.12,-0.08,0.18,0.18
-8.647e-04,6.9,6.9,-0.66,-0.7,-0.12,-0.12,0.14,0.1
-8.643e-04,6.9,7.1,-0.66,-0.62,-0.12,-0.08,0.14,0.18
-8.639e-04,6.9,6.9,-0.66,-0.7,-0.08,-0.16,0.14,0.1
-8.635e-04,6.9,7.1,-0.66,-0.62,-0.12,-0.08,0.14,0.18
-8.631e-04,7.1,6.9,-0.7,-0.7,-0.12,-0.16,0.14,0.1
-8.627e-04,6.9,7.1,-0.66,-0.62,-0.12,-0.08,0.18,0.18
-8.624e-04,6.9,6.9,-0.66,-0.7,-0.12,-0.16,0.14,0.1
-8.620e-04,6.9,7.1,-0.66,-0.62,-0.12,-0.08,0.14,0.18
-8.616e-04,6.9,6.9,-0.66,-0.7,-0.08,-0.16,0.14,0.1
-8.612e-04,6.9,7.1,-0.66,-0.62,-0.12,-0.08,0.14,0.18
-8.608e-04,6.9,6.9,-0.66,-0.7,-0.12,-0.12,0.14,0.1
-8.604e-04,6.9,7.1,-0.66,-0.62,-0.08,-0.08,0.14,0.18
-8.601e-04,6.9,6.9,-0.66,-0.7,-0.12,-0.16,0.18,0.1
-8.597e-04,6.9,7.1,-0.66,-0.62,-0.12,-0.08,0.14,0.18
-8.593e-04,6.9,6.9,-0.66,-0.7,-0.12,-0.16,0.14,0.1
-8.589e-04,6.9,7.1,-0.66,-0.62,-0.12,-0.08,0.14,0.18
-8.585e-04,6.9,6.9,-0.66,-0.7,-0.12,-0.16,0.14,0.1
-8.581e-04,6.9,7.1,-0.66,-0.62,-0.12,-0.08,0.14,0.18
-8.578e-04,6.9,6.9,-0.66,-0.7,-0.12,-0.12,0.14,0.1
-8.574e-04,6.9,7.1,-0.66,-0.62,-0.12,-0.08,0.14,0.18
-8.570e-04,7.1,6.9,-0.66,-0.7,-0.12,-0.16,0.14,0.1
-8.566e-04,6.9,7.1,-0.66,-0.62,-0.12,-0.08,0.14,0.18
-8.562e-04,7.1,6.9,-0.66,-0.7,-0.12,-0.12,0.14,0.1
-8.558e-04,6.9,7.1,-0.66,-0.62,-0.12,-0.08,0.14,0.18
