Data/meeting differntiaal 2/ALL0007 (20Vpp 1khz)/F0007CH1.CSV

Record Length,2.500000e+03,,  -0.002150000000,   0.04000,
Sample Interval,1.000000e-06,,  -0.002149000000,   0.04000,
Trigger Point,2.150000000000e+03,,  -0.002148000000,   0.04000,
,,,  -0.002147000000,   0.04000,
,,,  -0.002146000000,   0.04800,
,,,  -0.002145000000,   0.04800,
Source,CH1,,  -0.002144000000,   0.04800,
Vertical Units,V,,  -0.002143000000,   0.04800,
Vertical Scale,2.000000e-01,,  -0.002142000000,   0.04800,
Vertical Offset,2.400000e-02,,  -0.002141000000,   0.04800,
Horizontal Units,s,,  -0.002140000000,   0.04800,
Horizontal Scale,2.500000e-04,,  -0.002139000000,   0.04800,
Pt Fmt,Y,,  -0.002138000000,   0.04800,
Yzero,0.000000e+00,,  -0.002137000000,   0.05600,
Probe Atten,1.000000e+00,,  -0.002136000000,   0.05600,
Model Number,TBS1064,,  -0.002135000000,   0.05600,
Serial Number,C021209,,  -0.002134000000,   0.05600,
Firmware Version,FV:v26.05,,  -0.002133000000,   0.05600,
,,,-00.002132000000,   0.06400,
,,,-00.002131000000,   0.06400,
,,,-00.002130000000,   0.06400,
,,,-00.002129000000,   0.06400,
,,,-00.002128000000,   0.06400,
,,,-00.002127000000,   0.06400,
,,,-00.002126000000,   0.07200,
,,,-00.002125000000,   0.07200,
,,,-00.002124000000,   0.07200,
,,,-00.002123000000,   0.07200,
,,,-00.002122000000,   0.07200,
,,,-00.002121000000,   0.08000,
,,,-00.002120000000,   0.07200,
,,,-00.002119000000,   0.08000,
,,,-00.002118000000,   0.07200,
,,,-00.002117000000,   0.08000,
,,,-00.002116000000,   0.08000,
,,,-00.002115000000,   0.08000,
,,,-00.002114000000,   0.08000,
,,,-00.002113000000,   0.08000,
,,,-00.002112000000,   0.08000,
,,,-00.002111000000,   0.08800,
,,,-00.002110000000,   0.08800,
,,,-00.002109000000,   0.08800,
,,,-00.002108000000,   0.08800,
,,,-00.002107000000,   0.08800,
,,,-00.002106000000,   0.08800,
,,,-00.002105000000,   0.08800,
,,,-00.002104000000,   0.08800,
,,,-00.002103000000,   0.08800,
,,,-00.002102000000,   0.09600,
,,,-00.002101000000,   0.09600,
,,,-00.002100000000,   0.09600,
,,,-00.002099000000,   0.09600,
,,,-00.002098000000,   0.09600,
,,,-00.002097000000,   0.09600,
,,,-00.002096000000,   0.10400,
,,,-00.002095000000,   0.10400,
,,,-00.002094000000,   0.09600,
,,,-00.002093000000,   0.10400,
,,,-00.002092000000,   0.10400,
,,,-00.002091000000,   0.10400,
,,,-00.002090000000,   0.10400,
,,,-00.002089000000,   0.10400,
,,,-00.002088000000,   0.10400,
,,,-00.002087000000,   0.10400,
,,,-00.002086000000,   0.10400,
,,,-00.002085000000,   0.10400,
,,,-00.002084000000,   0.11200,
,,,-00.002083000000,   0.10400,
,,,-00.002082000000,   0.11200,
,,,-00.002081000000,   0.11200,
,,,-00.002080000000,   0.11200,
,,,-00.002079000000,   0.11200,
,,,-00.002078000000,   0.11200,
,,,-00.002077000000,   0.11200,
,,,-00.002076000000,   0.12000,
,,,-00.002075000000,   0.11200,
,,,-00.002074000000,   0.11200,
,,,-00.002073000000,   0.12000,
,,,-00.002072000000,   0.11200,
,,,-00.002071000000,   0.11200,
,,,-00.002070000000,   0.12000,
,,,-00.002069000000,   0.12000,
,,,-00.002068000000,   0.12000,
,,,-00.002067000000,   0.12000,
,,,-00.002066000000,   0.12800,
,,,-00.002065000000,   0.12800,
,,,-00.002064000000,   0.12000,
,,,-00.002063000000,   0.12800,
,,,-00.002062000000,   0.12800,
,,,-00.002061000000,   0.12800,
,,,-00.002060000000,   0.12800,
,,,-00.002059000000,   0.12800,
,,,-00.002058000000,   0.12800,
,,,-00.002057000000,   0.13600,
,,,-00.002056000000,   0.13600,
,,,-00.002055000000,   0.13600,
,,,-00.002054000000,   0.13600,
,,,-00.002053000000,   0.13600,
,,,-00.002052000000,   0.13600,
,,,-00.002051000000,   0.13600,
,,,-00.002050000000,   0.13600,
,,,-00.002049000000,   0.13600,
,,,-00.002048000000,   0.13600,
,,,-00.002047000000,   0.13600,
,,,-00.002046000000,   0.14400,
,,,-00.002045000000,   0.14400,
,,,-00.002044000000,   0.13600,
,,,-00.002043000000,   0.13600,
,,,-00.002042000000,   0.13600,
,,,-00.002041000000,   0.14400,
,,,-00.002040000000,   0.15200,
,,,-00.002039000000,   0.14400,
,,,-00.002038000000,   0.14400,
,,,-00.002037000000,   0.14400,
,,,-00.002036000000,   0.14400,
,,,-00.002035000000,   0.14400,
,,,-00.002034000000,   0.15200,
,,,-00.002033000000,   0.15200,
,,,-00.002032000000,   0.15200,
,,,-00.002031000000,   0.15200,
,,,-00.002030000000,   0.15200,
,,,-00.002029000000,   0.15200,
,,,-00.002028000000,   0.16000,
,,,-00.002027000000,   0.15200,
,,,-00.002026000000,   0.15200,
,,,-00.002025000000,   0.15200,
,,,-00.002024000000,   0.15200,
,,,-00.002023000000,   0.15200,
,,,-00.002022000000,   0.16000,
,,,-00.002021000000,   0.16000,
,,,-00.002020000000,   0.16000,
,,,-00.002019000000,   0.16000,
,,,-00.002018000000,   0.16000,
,,,-00.002017000000,   0.16000,
,,,-00.002016000000,   0.16000,
,,,-00.002015000000,   0.16000,
,,,-00.002014000000,   0.16000,
,,,-00.002013000000,   0.16000,
,,,-00.002012000000,   0.16000,
,,,-00.002011000000,   0.16800,
,,,-00.002010000000,   0.16800,
,,,-00.002009000000,   0.16000,
,,,-00.002008000000,   0.16800,
,,,-00.002007000000,   0.16800,
,,,-00.002006000000,   0.16800,
,,,-00.002005000000,   0.16800,
,,,-00.002004000000,   0.16800,
,,,-00.002003000000,   0.16800,
,,,-00.002002000000,   0.16800,
,,,-00.002001000000,   0.16800,
,,,-00.002000000000,   0.16800,
,,,-00.001999000000,   0.16800,
,,,-00.001998000000,   0.16800,
,,,-00.001997000000,   0.16800,
,,,-00.001996000000,   0.17600,
,,,-00.001995000000,   0.16800,
,,,-00.001994000000,   0.17600,
,,,-00.001993000000,   0.16800,
,,,-00.001992000000,   0.17600,
,,,-00.001991000000,   0.16800,
,,,-00.001990000000,   0.16800,
,,,-00.001989000000,   0.17600,
,,,-00.001988000000,   0.17600,
,,,-00.001987000000,   0.17600,
,,,-00.001986000000,   0.17600,
,,,-00.001985000000,   0.17600,
,,,-00.001984000000,   0.17600,
,,,-00.001983000000,   0.17600,
,,,-00.001982000000,   0.17600,
,,,-00.001981000000,   0.17600,
,,,-00.001980000000,   0.17600,
,,,-00.001979000000,   0.17600,
,,,-00.001978000000,   0.17600,
,,,-00.001977000000,   0.17600,
,,,-00.001976000000,   0.17600,
,,,-00.001975000000,   0.17600,
,,,-00.001974000000,   0.17600,
,,,-00.001973000000,   0.17600,
,,,-00.001972000000,   0.17600,
,,,-00.001971000000,   0.17600,
,,,-00.001970000000,   0.17600,
,,,-00.001969000000,   0.17600,
,,,-00.001968000000,   0.17600,
,,,-00.001967000000,   0.17600,
,,,-00.001966000000,   0.17600,
,,,-00.001965000000,   0.17600,
,,,-00.001964000000,   0.17600,
,,,-00.001963000000,   0.17600,
,,,-00.001962000000,   0.17600,
,,,-00.001961000000,   0.17600,
,,,-00.001960000000,   0.17600,
,,,-00.001959000000,   0.17600,
,,,-00.001958000000,   0.17600,
,,,-00.001957000000,   0.17600,
,,,-00.001956000000,   0.17600,
,,,-00.001955000000,   0.17600,
,,,-00.001954000000,   0.17600,
,,,-00.001953000000,   0.17600,
,,,-00.001952000000,   0.17600,
,,,-00.001951000000,   0.17600,
,,,-00.001950000000,   0.17600,
,,,-00.001949000000,   0.17600,
,,,-00.001948000000,   0.17600,
,,,-00.001947000000,   0.17600,
,,,-00.001946000000,   0.18400,
,,,-00.001945000000,   0.17600,
,,,-00.001944000000,   0.17600,
,,,-00.001943000000,   0.17600,
,,,-00.001942000000,   0.17600,
,,,-00.001941000000,   0.17600,
,,,-00.001940000000,   0.17600,
,,,-00.001939000000,   0.17600,
,,,-00.001938000000,   0.18400,
,,,-00.001937000000,   0.17600,
,,,-00.001936000000,   0.17600,
,,,-00.001935000000,   0.17600,
,,,-00.001934000000,   0.17600,
,,,-00.001933000000,   0.17600,
,,,-00.001932000000,   0.17600,
,,,-00.001931000000,   0.17600,
,,,-00.001930000000,   0.17600,
,,,-00.001929000000,   0.17600,
,,,-00.001928000000,   0.17600,
,,,-00.001927000000,   0.17600,
,,,-00.001926000000,   0.17600,
,,,-00.001925000000,   0.17600,
,,,-00.001924000000,   0.17600,
,,,-00.001923000000,   0.17600,
,,,-00.001922000000,   0.17600,
,,,-00.001921000000,   0.17600,
,,,-00.001920000000,   0.17600,
,,,-00.001919000000,   0.17600,
,,,-00.001918000000,   0.17600,
,,,-00.001917000000,   0.17600,
,,,-00.001916000000,   0.17600,
,,,-00.001915000000,   0.17600,
,,,-00.001914000000,   0.17600,
,,,-00.001913000000,   0.17600,
,,,-00.001912000000,   0.17600,
,,,-00.001911000000,   0.17600,
,,,-00.001910000000,   0.17600,
,,,-00.001909000000,   0.17600,
,,,-00.001908000000,   0.17600,
,,,-00.001907000000,   0.17600,
,,,-00.001906000000,   0.17600,
,,,-00.001905000000,   0.17600,
,,,-00.001904000000,   0.17600,
,,,-00.001903000000,   0.17600,
,,,-00.001902000000,   0.17600,
,,,-00.001901000000,   0.17600,
,,,-00.001900000000,   0.17600,
,,,-00.001899000000,   0.17600,
,,,-00.001898000000,   0.17600,
,,,-00.001897000000,   0.17600,
,,,-00.001896000000,   0.17600,
,,,-00.001895000000,   0.17600,
,,,-00.001894000000,   0.17600,
,,,-00.001893000000,   0.16800,
,,,-00.001892000000,   0.17600,
,,,-00.001891000000,   0.17600,
,,,-00.001890000000,   0.16800,
,,,-00.001889000000,   0.16800,
,,,-00.001888000000,   0.17600,
,,,-00.001887000000,   0.16800,
,,,-00.001886000000,   0.16800,
,,,-00.001885000000,   0.17600,
,,,-00.001884000000,   0.16800,
,,,-00.001883000000,   0.16800,
,,,-00.001882000000,   0.17600,
,,,-00.001881000000,   0.16800,
,,,-00.001880000000,   0.16800,
,,,-00.001879000000,   0.16800,
,,,-00.001878000000,   0.17600,
,,,-00.001877000000,   0.16800,
,,,-00.001876000000,   0.17600,
,,,-00.001875000000,   0.16800,
,,,-00.001874000000,   0.16000,
,,,-00.001873000000,   0.16800,
,,,-00.001872000000,   0.16800,
,,,-00.001871000000,   0.16800,
,,,-00.001870000000,   0.16000,
,,,-00.001869000000,   0.16000,
,,,-00.001868000000,   0.16000,
,,,-00.001867000000,   0.16000,
,,,-00.001866000000,   0.16000,
,,,-00.001865000000,   0.16800,
,,,-00.001864000000,   0.16000,
,,,-00.001863000000,   0.16000,
,,,-00.001862000000,   0.16000,
,,,-00.001861000000,   0.16000,
,,,-00.001860000000,   0.16000,
,,,-00.001859000000,   0.16000,
,,,-00.001858000000,   0.16000,
,,,-00.001857000000,   0.15200,
,,,-00.001856000000,   0.16000,
,,,-00.001855000000,   0.15200,
,,,-00.001854000000,   0.16000,
,,,-00.001853000000,   0.15200,
,,,-00.001852000000,   0.15200,
,,,-00.001851000000,   0.15200,
,,,-00.001850000000,   0.15200,
,,,-00.001849000000,   0.15200,
,,,-00.001848000000,   0.15200,
,,,-00.001847000000,   0.15200,
,,,-00.001846000000,   0.14400,
,,,-00.001845000000,   0.15200,
,,,-00.001844000000,   0.15200,
,,,-00.001843000000,   0.15200,
,,,-00.001842000000,   0.14400,
,,,-00.001841000000,   0.14400,
,,,-00.001840000000,   0.14400,
,,,-00.001839000000,   0.14400,
,,,-00.001838000000,   0.14400,
,,,-00.001837000000,   0.14400,
,,,-00.001836000000,   0.14400,
,,,-00.001835000000,   0.14400,
,,,-00.001834000000,   0.13600,
,,,-00.001833000000,   0.13600,
,,,-00.001832000000,   0.13600,
,,,-00.001831000000,   0.14400,
,,,-00.001830000000,   0.13600,
,,,-00.001829000000,   0.13600,
,,,-00.001828000000,   0.13600,
,,,-00.001827000000,   0.13600,
,,,-00.001826000000,   0.13600,
,,,-00.001825000000,   0.13600,
,,,-00.001824000000,   0.13600,
,,,-00.001823000000,   0.13600,
,,,-00.001822000000,   0.12800,
,,,-00.001821000000,   0.13600,
,,,-00.001820000000,   0.12800,
,,,-00.001819000000,   0.12800,
,,,-00.001818000000,   0.12800,
,,,-00.001817000000,   0.12800,
,,,-00.001816000000,   0.12800,
,,,-00.001815000000,   0.12000,
,,,-00.001814000000,   0.12000,
,,,-00.001813000000,   0.12800,
,,,-00.001812000000,   0.12000,
,,,-00.001811000000,   0.12000,
,,,-00.001810000000,   0.12000,
,,,-00.001809000000,   0.12000,
,,,-00.001808000000,   0.12000,
,,,-00.001807000000,   0.11200,
,,,-00.001806000000,   0.12000,
,,,-00.001805000000,   0.12000,
,,,-00.001804000000,   0.12000,
,,,-00.001803000000,   0.11200,
,,,-00.001802000000,   0.11200,
,,,-00.001801000000,   0.11200,
,,,-00.001800000000,   0.11200,
,,,-00.001799000000,   0.11200,
,,,-00.001798000000,   0.11200,
,,,-00.001797000000,   0.11200,
,,,-00.001796000000,   0.10400,
,,,-00.001795000000,   0.10400,
,,,-00.001794000000,   0.10400,
,,,-00.001793000000,   0.10400,
,,,-00.001792000000,   0.10400,
,,,-00.001791000000,   0.10400,
,,,-00.001790000000,   0.10400,
,,,-00.001789000000,   0.10400,
,,,-00.001788000000,   0.10400,
,,,-00.001787000000,   0.09600,
,,,-00.001786000000,   0.10400,
,,,-00.001785000000,   0.09600,
,,,-00.001784000000,   0.09600,
,,,-00.001783000000,   0.09600,
,,,-00.001782000000,   0.09600,
,,,-00.001781000000,   0.09600,
,,,-00.001780000000,   0.09600,
,,,-00.001779000000,   0.09600,
,,,-00.001778000000,   0.08800,
,,,-00.001777000000,   0.09600,
,,,-00.001776000000,   0.08800,
,,,-00.001775000000,   0.08800,
,,,-00.001774000000,   0.08800,
,,,-00.001773000000,   0.08800,
,,,-00.001772000000,   0.08800,
,,,-00.001771000000,   0.08800,
,,,-00.001770000000,   0.08800,
,,,-00.001769000000,   0.08000,
,,,-00.001768000000,   0.08000,
,,,-00.001767000000,   0.08800,
,,,-00.001766000000,   0.08000,
,,,-00.001765000000,   0.08000,
,,,-00.001764000000,   0.08000,
,,,-00.001763000000,   0.08000,
,,,-00.001762000000,   0.08000,
,,,-00.001761000000,   0.08000,
,,,-00.001760000000,   0.08000,
,,,-00.001759000000,   0.07200,
,,,-00.001758000000,   0.07200,
,,,-00.001757000000,   0.07200,
,,,-00.001756000000,   0.07200,
,,,-00.001755000000,   0.07200,
,,,-00.001754000000,   0.07200,
,,,-00.001753000000,   0.07200,
,,,-00.001752000000,   0.06400,
,,,-00.001751000000,   0.06400,
,,,-00.001750000000,   0.06400,
,,,-00.001749000000,   0.06400,
,,,-00.001748000000,   0.06400,
,,,-00.001747000000,   0.06400,
,,,-00.001746000000,   0.05600,
,,,-00.001745000000,   0.05600,
,,,-00.001744000000,   0.05600,
,,,-00.001743000000,   0.05600,
,,,-00.001742000000,   0.05600,
,,,-00.001741000000,   0.05600,
,,,-00.001740000000,   0.04800,
,,,-00.001739000000,   0.05600,
,,,-00.001738000000,   0.05600,
,,,-00.001737000000,   0.04800,
,,,-00.001736000000,   0.04800,
,,,-00.001735000000,   0.04800,
,,,-00.001734000000,   0.04800,
,,,-00.001733000000,   0.04000,
,,,-00.001732000000,   0.04000,
,,,-00.001731000000,   0.04800,
,,,-00.001730000000,   0.04000,
,,,-00.001729000000,   0.04000,
,,,-00.001728000000,   0.04000,
,,,-00.001727000000,   0.04000,
,,,-00.001726000000,   0.03200,
,,,-00.001725000000,   0.03200,
,,,-00.001724000000,   0.03200,
,,,-00.001723000000,   0.03200,
,,,-00.001722000000,   0.02400,
,,,-00.001721000000,   0.03200,
,,,-00.001720000000,   0.02400,
,,,-00.001719000000,   0.03200,
,,,-00.001718000000,   0.02400,
,,,-00.001717000000,   0.02400,
,,,-00.001716000000,   0.02400,
,,,-00.001715000000,   0.02400,
,,,-00.001714000000,   0.02400,
,,,-00.001713000000,   0.02400,
,,,-00.001712000000,   0.02400,
,,,-00.001711000000,   0.01600,
,,,-00.001710000000,   0.01600,
,,,-00.001709000000,   0.01600,
,,,-00.001708000000,   0.01600,
,,,-00.001707000000,   0.01600,
,,,-00.001706000000,   0.02400,
,,,-00.001705000000,   0.01600,
,,,-00.001704000000,   0.01600,
,,,-00.001703000000,   0.01600,
,,,-00.001702000000,   0.00800,
,,,-00.001701000000,   0.00800,
,,,-00.001700000000,   0.00800,
,,,-00.001699000000,   0.00000,
,,,-00.001698000000,   0.00000,
,,,-00.001697000000,   0.00000,
,,,-00.001696000000,   0.00800,
,,,-00.001695000000,   0.00000,
,,,-00.001694000000,   0.00000,
,,,-00.001693000000,   0.00000,
,,,-00.001692000000,   0.00000,
,,,-00.001691000000,   0.00000,
,,,-00.001690000000,   0.00000,
,,,-00.001689000000,  -0.00800,
,,,-00.001688000000,   0.00000,
,,,-00.001687000000,  -0.00800,
,,,-00.001686000000,  -0.00800,
,,,-00.001685000000,  -0.00800,
,,,-00.001684000000,  -0.00800,
,,,-00.001683000000,  -0.00800,
,,,-00.001682000000,  -0.01600,
,,,-00.001681000000,  -0.00800,
,,,-00.001680000000,  -0.01600,
,,,-00.001679000000,  -0.01600,
,,,-00.001678000000,  -0.01600,
,,,-00.001677000000,  -0.02400,
,,,-00.001676000000,  -0.01600,
,,,-00.001675000000,  -0.02400,
,,,-00.001674000000,  -0.02400,
,,,-00.001673000000,  -0.02400,
,,,-00.001672000000,  -0.02400,
,,,-00.001671000000,  -0.02400,
,,,-00.001670000000,  -0.02400,
,,,-00.001669000000,  -0.03200,
,,,-00.001668000000,  -0.03200,
,,,-00.001667000000,  -0.03200,
,,,-00.001666000000,  -0.03200,
,,,-00.001665000000,  -0.03200,
,,,-00.001664000000,  -0.03200,
,,,-00.001663000000,  -0.04000,
,,,-00.001662000000,  -0.03200,
,,,-00.001661000000,  -0.04000,
,,,-00.001660000000,  -0.04000,
,,,-00.001659000000,  -0.04000,
,,,-00.001658000000,  -0.04000,
,,,-00.001657000000,  -0.04000,
,,,-00.001656000000,  -0.04800,
,,,-00.001655000000,  -0.04800,
,,,-00.001654000000,  -0.04800,
,,,-00.001653000000,  -0.04800,
,,,-00.001652000000,  -0.04800,
,,,-00.001651000000,  -0.04800,
,,,-00.001650000000,  -0.04800,
,,,-00.001649000000,  -0.05600,
,,,-00.001648000000,  -0.04800,
,,,-00.001647000000,  -0.05600,
,,,-00.001646000000,  -0.05600,
,,,-00.001645000000,  -0.05600,
,,,-00.001644000000,  -0.05600,
,,,-00.001643000000,  -0.05600,
,,,-00.001642000000,  -0.06400,
,,,-00.001641000000,  -0.06400,
,,,-00.001640000000,  -0.05600,
,,,-00.001639000000,  -0.06400,
,,,-00.001638000000,  -0.06400,
,,,-00.001637000000,  -0.06400,
,,,-00.001636000000,  -0.07200,
,,,-00.001635000000,  -0.06400,
,,,-00.001634000000,  -0.07200,
,,,-00.001633000000,  -0.06400,
,,,-00.001632000000,  -0.07200,
,,,-00.001631000000,  -0.07200,
,,,-00.001630000000,  -0.07200,
,,,-00.001629000000,  -0.08000,
,,,-00.001628000000,  -0.07200,
,,,-00.001627000000,  -0.08000,
,,,-00.001626000000,  -0.08000,
,,,-00.001625000000,  -0.08000,
,,,-00.001624000000,  -0.08000,
,,,-00.001623000000,  -0.08000,
,,,-00.001622000000,  -0.08800,
,,,-00.001621000000,  -0.08000,
,,,-00.001620000000,  -0.08800,
,,,-00.001619000000,  -0.08800,
,,,-00.001618000000,  -0.08800,
,,,-00.001617000000,  -0.08800,
,,,-00.001616000000,  -0.08800,
,,,-00.001615000000,  -0.08800,
,,,-00.001614000000,  -0.08800,
,,,-00.001613000000,  -0.08800,
,,,-00.001612000000,  -0.08800,
,,,-00.001611000000,  -0.08800,
,,,-00.001610000000,  -0.09600,
,,,-00.001609000000,  -0.09600,
,,,-00.001608000000,  -0.09600,
,,,-00.001607000000,  -0.09600,
,,,-00.001606000000,  -0.09600,
,,,-00.001605000000,  -0.09600,
,,,-00.001604000000,  -0.10400,
,,,-00.001603000000,  -0.11200,
,,,-00.001602000000,  -0.10400,
,,,-00.001601000000,  -0.10400,
,,,-00.001600000000,  -0.10400,
,,,-00.001599000000,  -0.11200,
,,,-00.001598000000,  -0.10400,
,,,-00.001597000000,  -0.11200,
,,,-00.001596000000,  -0.11200,
,,,-00.001595000000,  -0.11200,
,,,-00.001594000000,  -0.11200,
,,,-00.001593000000,  -0.11200,
,,,-00.001592000000,  -0.11200,
,,,-00.001591000000,  -0.11200,
,,,-00.001590000000,  -0.11200,
,,,-00.001589000000,  -0.11200,
,,,-00.001588000000,  -0.12000,
,,,-00.001587000000,  -0.12000,
,,,-00.001586000000,  -0.12000,
,,,-00.001585000000,  -0.12000,
,,,-00.001584000000,  -0.12000,
,,,-00.001583000000,  -0.12000,
,,,-00.001582000000,  -0.12000,
,,,-00.001581000000,  -0.12000,
,,,-00.001580000000,  -0.12000,
,,,-00.001579000000,  -0.12000,
,,,-00.001578000000,  -0.12000,
,,,-00.001577000000,  -0.12000,
,,,-00.001576000000,  -0.12800,
,,,-00.001575000000,  -0.12800,
,,,-00.001574000000,  -0.12800,
,,,-00.001573000000,  -0.12800,
,,,-00.001572000000,  -0.12800,
,,,-00.001571000000,  -0.12800,
,,,-00.001570000000,  -0.12800,
,,,-00.001569000000,  -0.12800,
,,,-00.001568000000,  -0.13600,
,,,-00.001567000000,  -0.13600,
,,,-00.001566000000,  -0.13600,
,,,-00.001565000000,  -0.13600,
,,,-00.001564000000,  -0.13600,
,,,-00.001563000000,  -0.13600,
,,,-00.001562000000,  -0.14400,
,,,-00.001561000000,  -0.13600,
,,,-00.001560000000,  -0.14400,
,,,-00.001559000000,  -0.13600,
,,,-00.001558000000,  -0.14400,
,,,-00.001557000000,  -0.13600,
,,,-00.001556000000,  -0.14400,
,,,-00.001555000000,  -0.14400,
,,,-00.001554000000,  -0.14400,
,,,-00.001553000000,  -0.14400,
,,,-00.001552000000,  -0.15200,
,,,-00.001551000000,  -0.14400,
,,,-00.001550000000,  -0.14400,
,,,-00.001549000000,  -0.15200,
,,,-00.001548000000,  -0.15200,
,,,-00.001547000000,  -0.15200,
,,,-00.001546000000,  -0.15200,
,,,-00.001545000000,  -0.15200,
,,,-00.001544000000,  -0.15200,
,,,-00.001543000000,  -0.15200,
,,,-00.001542000000,  -0.15200,
,,,-00.001541000000,  -0.15200,
,,,-00.001540000000,  -0.15200,
,,,-00.001539000000,  -0.15200,
,,,-00.001538000000,  -0.15200,
,,,-00.001537000000,  -0.16000,
