Data/meeting blokgolf/blokgolf 50hz stappen 1v/T0008ALL.CSV

Model,DPO2004B
Firmware Version,1.52

Point Format,Y,,,,,,,
Horizontal Units,S,,,,,,,
Horizontal Scale,0.004,,,,,,,
Sample Interval,7.68049e-06,,,,,,,
Filter Frequency,7e+07,,,,,,,
Record Length,5208,,,,,,,
Gating,0.0% to 100.0%,,0.0% to 100.0%,,0.0% to 100.0%,,0.0% to 100.0%,
Probe Attenuation,1,,10,,10,,10,
Vertical Units,V,,V,,V,,V,
Vertical Offset,0,,0,,0,,0,
Vertical Scale,2,,0.5,,0.5,,0.5,
Label,,,,,,,,
TIME,CH1,CH1 Peak Detect,CH2,CH2 Peak Detect,CH3,CH3 Peak Detect,CH4,CH4 Peak Detect
-2.0000e-02,2.84,2.76,-0.09,-0.33,1.08,0.52,1.23,0.69
-1.9992e-02,2.92,3,-0.27,-0.01,0.78,1.1,0.95,1.25
-1.9984e-02,2.92,2.84,-0.31,-0.37,0.54,0.22,0.71,0.39
-1.9977e-02,2.92,3,-0.33,-0.29,0.34,0.54,0.53,0.73
-1.9969e-02,2.92,2.92,-0.35,-0.39,0.24,0.08,0.41,0.23
-1.9961e-02,2.92,3,-0.35,-0.33,0.16,0.26,0.31,0.43
-1.9954e-02,2.92,2.92,-0.35,-0.39,0.1,-0.02,0.25,0.15
-1.9946e-02,3,3.08,-0.37,-0.33,0.04,0.1,0.19,0.27
-1.9938e-02,2.92,2.92,-0.35,-0.39,-4.47035e-10,-0.04,0.17,0.11
-1.9931e-02,2.92,3.08,-0.37,-0.35,-4.47035e-10,0.02,0.17,0.19
-1.9923e-02,2.92,2.92,-0.37,-0.39,-0.02,-0.06,0.13,0.07
-1.9915e-02,3,3.08,-0.37,-0.35,-0.04,-4.47035e-10,0.13,0.15
-1.9908e-02,2.92,2.92,-0.37,-0.39,-0.04,-0.08,0.09,0.07
-1.9900e-02,3,3.08,-0.37,-0.35,-0.04,-0.02,0.09,0.13
-1.9892e-02,3,2.92,-0.37,-0.39,-0.04,-0.08,0.09,0.05
-1.9884e-02,3,3.08,-0.37,-0.35,-0.04,-0.02,0.09,0.11
-1.9877e-02,3,2.84,-0.37,-0.39,-0.06,-0.08,0.09,0.03
-1.9869e-02,3,3.08,-0.37,-0.35,-0.04,-0.02,0.07,0.09
-1.9861e-02,2.92,2.92,-0.37,-0.41,-0.04,-0.08,0.07,0.03
-1.9854e-02,3,3.08,-0.37,-0.35,-0.06,-0.02,0.07,0.09
-1.9846e-02,3,2.92,-0.39,-0.41,-0.04,-0.08,0.05,0.03
-1.9838e-02,3,3.08,-0.39,-0.35,-0.06,-0.02,0.07,0.09
-1.9831e-02,2.92,2.92,-0.37,-0.41,-0.04,-0.08,0.05,0.01
-1.9823e-02,2.92,3.08,-0.37,-0.35,-0.06,-0.02,0.05,0.07
-1.9815e-02,2.92,2.92,-0.37,-0.39,-0.04,-0.08,0.03,0.01
-1.9808e-02,2.92,3.08,-0.37,-0.35,-0.04,-0.02,0.05,0.07
-1.9800e-02,2.92,2.92,-0.37,-0.39,-0.04,-0.06,0.05,0.01
-1.9792e-02,2.92,3.08,-0.37,-0.35,-0.04,-0.02,0.05,0.07
-1.9785e-02,2.92,2.84,-0.37,-0.39,-0.04,-0.06,0.03,0.01
-1.9777e-02,2.92,3.08,-0.37,-0.35,-0.04,-0.02,0.03,0.07
-1.9769e-02,2.92,2.92,-0.37,-0.39,-0.04,-0.06,0.05,0.01
-1.9762e-02,2.92,3.08,-0.37,-0.35,-0.04,-4.47035e-10,0.03,0.07
-1.9754e-02,2.92,2.92,-0.37,-0.39,-0.02,-0.06,0.05,-0.01
-1.9746e-02,2.92,3.08,-0.37,-0.35,-0.04,-4.47035e-10,0.05,0.07
-1.9739e-02,2.92,2.92,-0.35,-0.39,-0.04,-0.06,0.03,0.01
-1.9731e-02,3,3.08,-0.39,-0.33,-0.02,-4.47035e-10,0.03,0.05
-1.9723e-02,3,2.84,-0.37,-0.41,-0.02,-0.06,0.03,-0.01
-1.9716e-02,2.92,3.08,-0.35,-0.35,-0.04,-4.47035e-10,0.01,0.05
-1.9708e-02,3,2.92,-0.37,-0.39,-0.02,-0.06,0.03,-0.01
-1.9700e-02,2.92,3.08,-0.39,-0.33,-0.02,-4.47035e-10,0.03,0.05
-1.9692e-02,2.92,2.92,-0.37,-0.39,-0.02,-0.06,0.03,-0.01
-1.9685e-02,2.92,3.08,-0.37,-0.33,-0.04,-4.47035e-10,0.03,0.05
-1.9677e-02,2.92,2.92,-0.37,-0.39,-0.02,-0.06,0.03,-0.01
-1.9669e-02,3,3.08,-0.37,-0.35,-0.02,-4.47035e-10,0.03,0.05
-1.9662e-02,3,2.84,-0.39,-0.39,-0.02,-0.04,0.03,-0.01
-1.9654e-02,3,3.08,-0.37,-0.35,-0.02,-4.47035e-10,0.03,0.05
-1.9646e-02,3,2.92,-0.37,-0.41,-0.02,-0.06,0.03,-0.01
-1.9639e-02,2.92,3.08,-0.37,-0.35,-0.02,-4.47035e-10,0.03,0.05
-1.9631e-02,3,2.92,-0.37,-0.39,-4.47035e-10,-0.06,0.01,-0.01
-1.9623e-02,3,3.08,-0.37,-0.35,-0.02,-4.47035e-10,0.01,0.05
-1.9616e-02,3,2.92,-0.37,-0.41,-0.04,-0.04,0.01,-0.01
-1.9608e-02,2.92,3.08,-0.37,-0.35,-4.47035e-10,-4.47035e-10,0.01,0.05
-1.9600e-02,3,2.92,-0.37,-0.39,-0.02,-0.04,0.03,-0.03
-1.9593e-02,3,3.08,-0.37,-0.35,-0.02,-4.47035e-10,0.03,0.05
-1.9585e-02,3,2.92,-0.37,-0.39,-0.04,-0.04,0.01,-0.01
-1.9577e-02,3,3.08,-0.39,-0.35,-4.47035e-10,0.02,0.01,0.03
-1.9570e-02,2.92,2.92,-0.37,-0.39,-0.02,-0.04,0.01,-0.03
-1.9562e-02,3,3.08,-0.37,-0.35,-0.02,0.02,0.03,0.05
-1.9554e-02,3,2.84,-0.37,-0.39,-0.02,-0.04,0.01,-0.03
-1.9547e-02,3,3.08,-0.37,-0.35,-0.02,0.02,0.01,0.05
-1.9539e-02,3,2.92,-0.37,-0.39,-0.02,-0.04,0.03,-0.03
-1.9531e-02,3,3.08,-0.37,-0.35,-0.02,0.02,0.01,0.03
-1.9523e-02,3,2.92,-0.37,-0.39,-0.02,-0.04,0.01,-0.03
-1.9516e-02,3,3.08,-0.39,-0.35,-4.47035e-10,0.02,0.01,0.05
-1.9508e-02,2.92,2.92,-0.37,-0.39,-4.47035e-10,-0.04,0.01,-0.03
-1.9500e-02,2.92,3.08,-0.37,-0.33,-4.47035e-10,0.02,0.01,0.03
-1.9493e-02,3,2.92,-0.37,-0.39,-0.02,-0.04,0.01,-0.03
-1.9485e-02,2.92,3.08,-0.35,-0.35,-4.47035e-10,0.02,0.03,0.03
-1.9477e-02,2.92,2.92,-0.35,-0.39,-4.47035e-10,-0.04,0.01,-0.03
-1.9470e-02,3,3.08,-0.37,-0.35,-0.02,0.02,0.01,0.03
-1.9462e-02,3,2.92,-0.39,-0.39,-4.47035e-10,-0.04,0.01,-0.03
-1.9454e-02,3,3.08,-0.37,-0.33,-4.47035e-10,0.02,0.01,0.03
-1.9447e-02,3,2.92,-0.37,-0.41,-4.47035e-10,-0.04,0.01,-0.03
-1.9439e-02,3,3.08,-0.37,-0.35,-0.02,0.02,-0.01,0.03
-1.9431e-02,3,2.92,-0.37,-0.39,-0.02,-0.04,0.01,-0.03
-1.9424e-02,2.92,3.08,-0.37,-0.35,-4.47035e-10,0.02,-0.01,0.03
-1.9416e-02,2.92,2.92,-0.37,-0.39,-4.47035e-10,-0.04,0.01,-0.03
-1.9408e-02,3,3.08,-0.37,-0.35,-4.47035e-10,0.02,-0.01,0.03
-1.9401e-02,2.92,2.92,-0.37,-0.41,-0.02,-0.04,-0.01,-0.03
-1.9393e-02,2.92,3.08,-0.35,-0.35,-4.47035e-10,0.02,-0.01,0.03
-1.9385e-02,3,2.92,-0.37,-0.39,-0.02,-0.04,0.01,-0.03
-1.9378e-02,2.92,3.08,-0.37,-0.35,-0.02,0.02,0.01,0.03
-1.9370e-02,3,2.92,-0.37,-0.39,-0.02,-0.04,0.01,-0.03
-1.9362e-02,3,3.08,-0.37,-0.35,-4.47035e-10,0.02,0.01,0.03
-1.9355e-02,3,2.92,-0.37,-0.39,-4.47035e-10,-0.04,0.01,-0.03
-1.9347e-02,3,3.08,-0.37,-0.33,-4.47035e-10,0.02,0.01,0.03
-1.9339e-02,2.92,2.92,-0.37,-0.39,-4.47035e-10,-0.04,0.01,-0.03
-1.9331e-02,2.92,3.08,-0.37,-0.35,-4.47035e-10,0.02,-0.01,0.03
-1.9324e-02,3,2.92,-0.37,-0.39,-4.47035e-10,-0.04,-0.01,-0.03
-1.9316e-02,3,3.08,-0.37,-0.35,-4.47035e-10,0.02,-0.01,0.03
-1.9308e-02,3,2.92,-0.37,-0.39,-4.47035e-10,-0.04,0.01,-0.03
-1.9301e-02,3,3.08,-0.37,-0.35,-4.47035e-10,0.02,-0.01,0.03
-1.9293e-02,2.92,2.92,-0.37,-0.39,-0.02,-0.04,-0.01,-0.03
-1.9285e-02,3,3.08,-0.37,-0.35,-4.47035e-10,0.02,-0.01,0.03
-1.9278e-02,3,2.92,-0.37,-0.39,-0.02,-0.04,0.01,-0.03
-1.9270e-02,2.92,3.08,-0.37,-0.35,-4.47035e-10,0.02,0.01,0.03
-1.9262e-02,3,2.92,-0.37,-0.39,-4.47035e-10,-0.04,0.01,-0.05
-1.9255e-02,3,3.08,-0.37,-0.33,-4.47035e-10,0.02,-0.01,0.03
-1.9247e-02,3,2.92,-0.39,-0.39,-4.47035e-10,-0.04,0.01,-0.03
-1.9239e-02,2.92,3.08,-0.37,-0.35,-0.02,0.02,0.01,0.03
-1.9232e-02,3,2.84,-0.37,-0.39,-4.47035e-10,-0.04,-0.01,-0.03
-1.9224e-02,2.92,3.08,-0.35,-0.35,-0.02,0.02,-0.01,0.03
-1.9216e-02,3,2.92,-0.37,-0.39,-4.47035e-10,-0.04,0.01,-0.03
-1.9209e-02,3,3.08,-0.39,-0.35,-0.02,0.02,0.01,0.03
-1.9201e-02,3,2.92,-0.37,-0.39,-4.47035e-10,-0.04,-0.01,-0.03
-1.9193e-02,3,3.08,-0.37,-0.35,-4.47035e-10,0.02,0.01,0.03
-1.9186e-02,3,2.92,-0.37,-0.39,-4.47035e-10,-0.04,-0.01,-0.03
-1.9178e-02,3,3.08,-0.37,-0.35,-4.47035e-10,0.02,-0.01,0.03
-1.9170e-02,3,2.92,-0.37,-0.39,-4.47035e-10,-0.04,-0.01,-0.03
-1.9163e-02,2.92,3.08,-0.35,-0.35,-4.47035e-10,0.02,0.01,0.03
-1.9155e-02,2.92,2.92,-0.37,-0.39,-0.02,-0.04,-0.01,-0.03
-1.9147e-02,3,3.08,-0.37,-0.35,-4.47035e-10,0.02,0.01,0.03
-1.9139e-02,3,2.92,-0.37,-0.39,-4.47035e-10,-0.04,0.01,-0.03
-1.9132e-02,3,3.08,-0.37,-0.33,-4.47035e-10,0.02,0.01,0.03
-1.9124e-02,3,2.92,-0.37,-0.39,-4.47035e-10,-0.04,-0.01,-0.03
-1.9116e-02,2.92,3.08,-0.35,-0.35,-4.47035e-10,0.02,0.01,0.03
-1.9109e-02,3,2.92,-0.37,-0.39,-0.02,-0.04,0.01,-0.03
-1.9101e-02,2.92,3.08,-0.37,-0.35,-4.47035e-10,0.02,0.01,0.03
-1.9093e-02,2.92,2.92,-0.37,-0.39,0.02,-0.04,0.01,-0.03
-1.9086e-02,3,3.08,-0.37,-0.35,-4.47035e-10,0.02,0.01,0.03
-1.9078e-02,3,2.92,-0.35,-0.39,-0.02,-0.04,-0.01,-0.03
-1.9070e-02,3,3.08,-0.37,-0.35,-4.47035e-10,0.02,-0.01,0.03
-1.9063e-02,3,2.92,-0.37,-0.39,-4.47035e-10,-0.04,0.01,-0.03
-1.9055e-02,3,3.08,-0.35,-0.33,-4.47035e-10,0.02,-0.01,0.03
-1.9047e-02,3,2.92,-0.37,-0.39,-4.47035e-10,-0.04,-0.01,-0.03
-1.9040e-02,2.92,3.08,-0.37,-0.35,-4.47035e-10,0.02,-0.01,0.03
-1.9032e-02,3,2.92,-0.37,-0.39,-4.47035e-10,-0.04,0.01,-0.03
-1.9024e-02,3,3.08,-0.37,-0.35,-4.47035e-10,0.02,-0.01,0.03
-1.9017e-02,2.92,2.92,-0.37,-0.39,-0.02,-0.02,0.01,-0.03
-1.9009e-02,3,3.08,-0.37,-0.33,-4.47035e-10,0.02,0.01,0.03
-1.9001e-02,2.92,2.92,-0.35,-0.39,-0.02,-0.02,0.01,-0.03
-1.8994e-02,2.92,3.08,-0.37,-0.33,-4.47035e-10,0.02,-0.01,0.01
-1.8986e-02,3,2.92,-0.37,-0.39,-4.47035e-10,-0.04,-0.01,-0.03
-1.8978e-02,3,3.08,-0.37,-0.33,-4.47035e-10,0.02,-0.01,0.03
-1.8970e-02,3,2.92,-0.37,-0.39,-4.47035e-10,-0.04,-0.01,-0.03
-1.8963e-02,3,3.08,-0.37,-0.33,-0.02,0.02,0.01,0.03
-1.8955e-02,3,2.92,-0.35,-0.39,-4.47035e-10,-0.02,-0.01,-0.05
-1.8947e-02,2.92,3.08,-0.37,-0.33,0.02,0.02,-0.01,0.03
-1.8940e-02,3,2.92,-0.37,-0.39,-4.47035e-10,-0.02,-0.01,-0.05
-1.8932e-02,3,3.08,-0.37,-0.33,-4.47035e-10,0.02,-0.01,0.03
-1.8924e-02,2.92,2.92,-0.37,-0.39,0.02,-0.02,-0.01,-0.03
-1.8917e-02,2.92,3.08,-0.35,-0.33,-4.47035e-10,0.02,-0.01,0.03
-1.8909e-02,3,2.92,-0.37,-0.39,-4.47035e-10,-0.02,-0.01,-0.03
-1.8901e-02,3,3.08,-0.37,-0.33,-4.47035e-10,0.02,-0.03,0.03
-1.8894e-02,2.92,2.92,-0.37,-0.39,-4.47035e-10,-0.02,-0.01,-0.05
-1.8886e-02,2.92,3.08,-0.37,-0.33,-4.47035e-10,0.02,-0.01,0.03
-1.8878e-02,2.92,2.92,-0.37,-0.39,-4.47035e-10,-0.04,-0.01,-0.03
-1.8871e-02,3,3.08,-0.37,-0.35,-4.47035e-10,0.02,-0.01,0.03
-1.8863e-02,2.92,2.92,-0.37,-0.39,0.02,-0.02,-0.01,-0.03
-1.8855e-02,3,3.08,-0.37,-0.33,-0.02,0.02,-0.01,0.03
-1.8848e-02,2.92,2.92,-0.35,-0.39,-4.47035e-10,-0.02,0.01,-0.05
-1.8840e-02,3,3.08,-0.35,-0.33,-4.47035e-10,0.02,-0.01,0.03
-1.8832e-02,2.92,2.92,-0.35,-0.39,-0.02,-0.04,-0.01,-0.03
-1.8825e-02,3,3.08,-0.37,-0.35,-4.47035e-10,0.02,0.01,0.03
-1.8817e-02,2.92,2.84,-0.35,-0.39,-4.47035e-10,-0.04,-0.01,-0.03
-1.8809e-02,2.92,3.08,-0.37,-0.35,-0.02,0.02,-0.01,0.03
-1.8802e-02,3,2.92,-0.37,-0.39,-4.47035e-10,-0.04,-0.01,-0.05
-1.8794e-02,3,3.08,-0.37,-0.35,-4.47035e-10,0.02,-0.01,0.03
-1.8786e-02,3,2.92,-0.37,-0.39,-4.47035e-10,-0.02,-0.01,-0.05
-1.8778e-02,3,3.08,-0.37,-0.35,-4.47035e-10,0.02,-0.01,0.01
-1.8771e-02,2.92,2.92,-0.37,-0.39,0.02,-0.04,-0.01,-0.05
-1.8763e-02,2.92,3.08,-0.37,-0.33,-4.47035e-10,0.02,-0.01,0.01
-1.8755e-02,3,2.92,-0.35,-0.39,-4.47035e-10,-0.02,0.01,-0.03
-1.8748e-02,2.92,3.08,-0.37,-0.35,-4.47035e-10,0.02,-0.01,0.03
-1.8740e-02,3,2.92,-0.35,-0.39,-4.47035e-10,-0.02,-0.01,-0.03
-1.8732e-02,2.92,3.08,-0.37,-0.33,-4.47035e-10,0.02,0.01,0.03
-1.8725e-02,3,2.92,-0.35,-0.39,-4.47035e-10,-0.04,0.01,-0.03
-1.8717e-02,3,3.08,-0.37,-0.33,-4.47035e-10,0.02,0.01,0.03
-1.8709e-02,3,2.92,-0.35,-0.39,-4.47035e-10,-0.04,-0.01,-0.03
-1.8702e-02,2.92,3.08,-0.37,-0.33,-4.47035e-10,0.02,-0.01,0.03
-1.8694e-02,2.92,2.84,-0.35,-0.39,-0.02,-0.02,-0.01,-0.03
-1.8686e-02,2.92,3.08,-0.37,-0.33,-4.47035e-10,0.02,-0.01,0.03
-1.8679e-02,3,2.92,-0.37,-0.39,-4.47035e-10,-0.04,-0.01,-0.05
-1.8671e-02,2.92,3.08,-0.35,-0.33,-0.02,0.02,-0.01,0.03
-1.8663e-02,2.92,2.92,-0.37,-0.39,-4.47035e-10,-0.04,0.01,-0.03
-1.8656e-02,3,3.08,-0.35,-0.33,-4.47035e-10,0.02,-0.01,0.03
-1.8648e-02,3,2.92,-0.35,-0.39,-4.47035e-10,-0.04,0.01,-0.05
-1.8640e-02,2.92,3.08,-0.35,-0.33,-0.02,0.02,0.01,0.01
-1.8633e-02,2.92,2.92,-0.37,-0.39,-4.47035e-10,-0.04,0.01,-0.03
-1.8625e-02,3,3.08,-0.35,-0.33,-0.02,0.02,-0.01,0.03
-1.8617e-02,2.92,2.92,-0.37,-0.39,-0.02,-0.04,-0.01,-0.05
-1.8610e-02,2.92,3.08,-0.37,-0.33,-4.47035e-10,0.02,-0.01,0.01
-1.8602e-02,2.92,2.92,-0.35,-0.39,-4.47035e-10,-0.02,-0.01,-0.03
-1.8594e-02,2.92,3.08,-0.37,-0.33,-4.47035e-10,0.02,-0.01,0.03
-1.8586e-02,2.92,2.92,-0.37,-0.39,-4.47035e-10,-0.04,-0.01,-0.05
-1.8579e-02,3,3.08,-0.37,-0.33,-4.47035e-10,0.02,-0.01,0.03
-1.8571e-02,3,2.92,-0.35,-0.39,-4.47035e-10,-0.02,-0.01,-0.03
-1.8563e-02,2.92,3.08,-0.35,-0.33,-0.02,0.02,-0.01,0.01
-1.8556e-02,2.92,2.92,-0.37,-0.39,-4.47035e-10,-0.02,-0.01,-0.05
-1.8548e-02,2.92,3.08,-0.35,-0.33,-4.47035e-10,0.02,-0.01,0.03
-1.8540e-02,2.92,2.92,-0.37,-0.39,-4.47035e-10,-0.02,-0.01,-0.03
-1.8533e-02,2.92,3.08,-0.37,-0.33,-4.47035e-10,0.04,-0.01,0.03
-1.8525e-02,3,2.92,-0.35,-0.39,-4.47035e-10,-0.02,-0.01,-0.03
-1.8517e-02,3,3.08,-0.35,-0.33,-4.47035e-10,0.02,-0.01,0.01
-1.8510e-02,2.92,2.92,-0.35,-0.39,-4.47035e-10,-0.04,-0.01,-0.03
-1.8502e-02,2.92,3.08,-0.37,-0.33,-4.47035e-10,0.02,0.01,0.03
-1.8494e-02,2.92,2.92,-0.37,-0.39,-4.47035e-10,-0.04,-0.01,-0.03
-1.8487e-02,3,3.08,-0.37,-0.33,-4.47035e-10,0.02,-0.01,0.03
-1.8479e-02,2.92,2.92,-0.37,-0.39,-4.47035e-10,-0.04,-0.01,-0.05
-1.8471e-02,2.92,3.08,-0.37,-0.33,0.02,0.02,-0.01,0.03
-1.8464e-02,2.92,2.92,-0.37,-0.39,-4.47035e-10,-0.02,-0.01,-0.03
-1.8456e-02,3,3.08,-0.35,-0.33,-4.47035e-10,0.02,0.01,0.03
-1.8448e-02,2.92,2.92,-0.35,-0.39,-0.02,-0.02,-0.01,-0.03
-1.8441e-02,2.92,3.08,-0.37,-0.33,-4.47035e-10,0.02,-0.01,0.01
-1.8433e-02,2.92,2.92,-0.37,-0.39,-4.47035e-10,-0.02,0.01,-0.03
-1.8425e-02,2.92,3.08,-0.37,-0.33,-4.47035e-10,0.04,-0.01,0.03
-1.8417e-02,3,2.92,-0.37,-0.39,-4.47035e-10,-0.04,-0.01,-0.05
-1.8410e-02,3,3.08,-0.35,-0.33,-4.47035e-10,0.02,-0.01,0.03
-1.8402e-02,2.92,2.92,-0.37,-0.39,-4.47035e-10,-0.04,-0.01,-0.03
-1.8394e-02,3,3.08,-0.35,-0.33,0.02,0.02,-0.01,0.03
-1.8387e-02,2.92,2.92,-0.35,-0.39,-4.47035e-10,-0.02,-0.01,-0.03
-1.8379e-02,2.92,3.08,-0.37,-0.33,-4.47035e-10,0.02,-0.01,0.01
-1.8371e-02,3,2.92,-0.35,-0.39,-4.47035e-10,-0.02,-0.01,-0.05
-1.8364e-02,3,3.08,-0.37,-0.33,-4.47035e-10,0.02,-0.01,0.01
-1.8356e-02,2.92,2.92,-0.35,-0.39,-4.47035e-10,-0.04,-0.01,-0.05
-1.8348e-02,3,3.08,-0.37,-0.33,-4.47035e-10,0.02,-0.01,0.01
-1.8341e-02,2.92,2.92,-0.35,-0.39,-4.47035e-10,-0.02,-0.01,-0.05
-1.8333e-02,2.92,3.08,-0.37,-0.33,-4.47035e-10,0.02,-0.01,0.03
-1.8325e-02,3,2.92,-0.35,-0.39,-4.47035e-10,-0.04,0.01,-0.03
-1.8318e-02,3,3.08,-0.35,-0.33,-4.47035e-10,0.02,-0.01,0.01
-1.8310e-02,3,2.92,-0.35,-0.39,-4.47035e-10,-0.04,-0.01,-0.05
-1.8302e-02,3,3.08,-0.37,-0.33,-4.47035e-10,0.02,0.01,0.03
-1.8295e-02,3,2.92,-0.35,-0.39,-4.47035e-10,-0.04,0.01,-0.05
-1.8287e-02,3,3.08,-0.35,-0.33,-4.47035e-10,0.02,-0.01,0.03
-1.8279e-02,2.92,2.92,-0.35,-0.39,0.02,-0.04,-0.01,-0.05
-1.8272e-02,2.92,3.08,-0.35,-0.33,-4.47035e-10,0.02,0.01,0.03
-1.8264e-02,3,2.92,-0.37,-0.39,-4.47035e-10,-0.04,-0.01,-0.05
-1.8256e-02,3,3.08,-0.35,-0.33,-4.47035e-10,0.02,-0.01,0.01
-1.8249e-02,3,2.84,-0.35,-0.39,-4.47035e-10,-0.04,-0.03,-0.03
-1.8241e-02,2.92,3.08,-0.37,-0.33,-4.47035e-10,0.02,0.01,0.03
-1.8233e-02,3,2.92,-0.37,-0.39,-4.47035e-10,-0.04,0.01,-0.03
-1.8225e-02,3,3.08,-0.35,-0.33,-4.47035e-10,0.02,-0.01,0.03
-1.8218e-02,2.92,2.92,-0.35,-0.39,-0.02,-0.04,-0.01,-0.03
-1.8210e-02,2.92,3.08,-0.35,-0.33,-4.47035e-10,0.02,-0.01,0.01
-1.8202e-02,3,2.92,-0.37,-0.39,-4.47035e-10,-0.04,-0.01,-0.03
-1.8195e-02,2.92,3.08,-0.35,-0.33,-4.47035e-10,0.02,0.01,0.01
-1.8187e-02,2.92,2.92,-0.35,-0.39,-4.47035e-10,-0.04,-0.01,-0.03
-1.8179e-02,3,3.08,-0.35,-0.33,-4.47035e-10,0.02,-0.01,0.01
-1.8172e-02,2.92,2.92,-0.35,-0.39,-0.02,-0.04,-0.01,-0.05
-1.8164e-02,3,3.08,-0.35,-0.33,-4.47035e-10,0.02,-0.01,0.03
-1.8156e-02,2.92,2.92,-0.35,-0.39,-4.47035e-10,-0.04,0.01,-0.03
-1.8149e-02,2.92,3.08,-0.37,-0.33,-4.47035e-10,0.02,-0.01,0.03
-1.8141e-02,3,2.92,-0.35,-0.39,-4.47035e-10,-0.04,-0.01,-0.05
-1.8133e-02,2.92,3.08,-0.37,-0.33,-4.47035e-10,0.02,-0.01,0.01
-1.8126e-02,2.92,2.84,-0.35,-0.39,-4.47035e-10,-0.04,-0.01,-0.05
-1.8118e-02,2.92,3.08,-0.35,-0.33,-4.47035e-10,0.02,-0.01,0.01
-1.8110e-02,3,2.92,-0.35,-0.39,-4.47035e-10,-0.04,-0.01,-0.05
-1.8103e-02,2.92,3.08,-0.35,-0.33,0.02,0.02,0.01,0.03
-1.8095e-02,3,2.92,-0.35,-0.39,-4.47035e-10,-0.04,-0.01,-0.05
-1.8087e-02,2.92,3.08,-0.37,-0.33,-4.47035e-10,0.02,-0.01,0.01
-1.8080e-02,2.92,2.92,-0.35,-0.37,0.02,-0.02,0.01,-0.05
-1.8072e-02,2.92,3.08,-0.35,-0.33,0.02,0.02,-0.01,0.03
-1.8064e-02,3,2.92,-0.37,-0.39,-4.47035e-10,-0.04,-0.01,-0.05
-1.8057e-02,2.92,3.08,-0.35,-0.33,-4.47035e-10,0.04,0.01,0.01
-1.8049e-02,3,2.92,-0.37,-0.39,-4.47035e-10,-0.02,-0.01,-0.05
-1.8041e-02,2.92,3.08,-0.35,-0.33,-0.02,0.02,0.01,0.01
-1.8033e-02,3,2.92,-0.35,-0.37,-4.47035e-10,-0.02,-0.01,-0.05
-1.8026e-02,2.92,3.08,-0.35,-0.33,-4.47035e-10,0.04,-0.01,0.01
-1.8018e-02,3,2.92,-0.35,-0.39,0.02,-0.02,0.01,-0.05
-1.8010e-02,2.92,3.08,-0.35,-0.33,-4.47035e-10,0.02,0.01,0.03
-1.8003e-02,2.92,2.92,-0.37,-0.39,-4.47035e-10,-0.02,-0.01,-0.03
-1.7995e-02,2.92,3.08,-0.35,-0.33,-4.47035e-10,0.02,0.01,0.03
-1.7987e-02,3,2.92,-0.35,-0.37,0.02,-0.04,-0.01,-0.05
-1.7980e-02,3,3.08,-0.35,-0.33,-4.47035e-10,0.02,-0.01,0.03
-1.7972e-02,2.92,2.92,-0.35,-0.37,-4.47035e-10,-0.02,-0.01,-0.05
-1.7964e-02,3,3.08,-0.35,-0.33,-4.47035e-10,0.02,-0.01,0.01
-1.7957e-02,3,2.92,-0.35,-0.39,-0.02,-0.04,-0.03,-0.03
-1.7949e-02,3,3.08,-0.35,-0.33,-4.47035e-10,0.02,-0.01,0.01
-1.7941e-02,2.92,2.92,-0.35,-0.37,-4.47035e-10,-0.02,-0.01,-0.03
-1.7934e-02,2.92,3.08,-0.35,-0.33,-4.47035e-10,0.02,-0.01,0.03
-1.7926e-02,3,2.92,-0.35,-0.37,-4.47035e-10,-0.04,-0.01,-0.05
-1.7918e-02,3,3.08,-0.35,-0.33,-4.47035e-10,0.02,-0.01,0.01
-1.7911e-02,3,2.92,-0.35,-0.37,-4.47035e-10,-0.02,0.01,-0.03
-1.7903e-02,3,3.08,-0.35,-0.33,-4.47035e-10,0.02,-0.01,0.01
-1.7895e-02,3,2.92,-0.35,-0.37,-4.47035e-10,-0.02,-0.01,-0.03
-1.7888e-02,3,3.08,-0.35,-0.33,-4.47035e-10,0.02,-0.01,0.01
-1.7880e-02,3,2.92,-0.35,-0.37,-4.47035e-10,-0.02,-0.01,-0.05
-1.7872e-02,2.92,3.08,-0.35,-0.33,-4.47035e-10,0.02,0.01,0.03
-1.7865e-02,3,2.92,-0.35,-0.37,-4.47035e-10,-0.02,-0.01,-0.05
-1.7857e-02,3,3.08,-0.35,-0.33,-4.47035e-10,0.02,0.01,0.01
-1.7849e-02,3,2.92,-0.35,-0.37,-4.47035e-10,-0.04,-0.01,-0.05
-1.7841e-02,2.92,3.08,-0.35,-0.33,-0.02,0.02,-0.01,0.01
-1.7834e-02,2.92,2.84,-0.35,-0.37,-4.47035e-10,-0.04,-0.01,-0.03
-1.7826e-02,3,3.08,-0.33,-0.33,-0.02,0.02,-0.01,0.03
-1.7818e-02,3,2.92,-0.35,-0.37,0.02,-0.02,-0.01,-0.03
-1.7811e-02,2.92,3.08,-0.35,-0.33,-4.47035e-10,0.02,-0.01,0.01
-1.7803e-02,2.92,2.92,-0.35,-0.37,-4.47035e-10,-0.04,-0.01,-0.05
-1.7795e-02,3,3.08,-0.35,-0.31,-0.02,0.02,-0.01,0.01
-1.7788e-02,2.92,2.92,-0.35,-0.37,-4.47035e-10,-0.02,-0.01,-0.05
-1.7780e-02,2.92,3.08,-0.35,-0.33,-4.47035e-10,0.02,-0.01,0.03
-1.7772e-02,2.92,2.92,-0.37,-0.39,-4.47035e-10,-0.04,-0.01,-0.05
-1.7765e-02,3,3.08,-0.35,-0.33,-4.47035e-10,0.04,-0.01,0.01
-1.7757e-02,2.92,2.92,-0.35,-0.37,-4.47035e-10,-0.04,-0.01,-0.05
-1.7749e-02,2.92,3.08,-0.35,-0.31,-4.47035e-10,0.04,-0.01,0.01
-1.7742e-02,3,2.92,-0.35,-0.37,-4.47035e-10,-0.04,-0.01,-0.05
-1.7734e-02,3,3.08,-0.35,-0.33,-4.47035e-10,0.02,-0.01,0.01
-1.7726e-02,3,2.92,-0.35,-0.37,-0.02,-0.04,-0.01,-0.05
-1.7719e-02,2.92,3.08,-0.35,-0.31,-4.47035e-10,0.02,-0.01,0.01
-1.7711e-02,2.92,2.92,-0.35,-0.37,-4.47035e-10,-0.02,-0.01,-0.03
-1.7703e-02,2.92,3.08,-0.35,-0.33,-0.02,0.02,-0.01,0.03
-1.7696e-02,2.92,2.92,-0.35,-0.37,-0.02,-0.02,-0.01,-0.03
-1.7688e-02,3,3.08,-0.35,-0.31,-4.47035e-10,0.02,-0.03,0.01
-1.7680e-02,2.92,2.84,-0.35,-0.37,-4.47035e-10,-0.04,-0.01,-0.05
-1.7672e-02,2.92,3.08,-0.35,-0.33,-4.47035e-10,0.02,-0.01,0.01
-1.7665e-02,3,2.92,-0.35,-0.37,-4.47035e-10,-0.02,-0.01,-0.05
-1.7657e-02,3,3.08,-0.33,-0.33,-4.47035e-10,0.02,-0.01,0.01
-1.7649e-02,3,2.92,-0.35,-0.37,-4.47035e-10,-0.02,-0.01,-0.05
-1.7642e-02,3,3.08,-0.33,-0.33,0.02,0.02,0.01,0.03
-1.7634e-02,3,2.92,-0.35,-0.37,-4.47035e-10,-0.04,-0.01,-0.03
-1.7626e-02,2.92,3.08,-0.35,-0.31,-4.47035e-10,0.02,-0.01,0.01
-1.7619e-02,2.92,2.92,-0.33,-0.37,-4.47035e-10,-0.04,-0.01,-0.05
-1.7611e-02,3,3.08,-0.35,-0.31,-4.47035e-10,0.02,0.01,0.01
-1.7603e-02,2.92,2.92,-0.35,-0.37,0.02,-0.04,-0.01,-0.03
-1.7596e-02,3,3.08,-0.35,-0.31,-4.47035e-10,0.02,-0.01,0.01
-1.7588e-02,3,2.92,-0.33,-0.37,-4.47035e-10,-0.04,-0.01,-0.03
-1.7580e-02,3,3.08,-0.35,-0.31,0.02,0.02,-0.01,0.01
-1.7573e-02,3,2.92,-0.35,-0.37,-4.47035e-10,-0.04,-0.01,-0.05
-1.7565e-02,3,3.08,-0.33,-0.31,0.02,0.02,0.01,0.03
-1.7557e-02,2.92,2.92,-0.35,-0.37,-4.47035e-10,-0.04,-0.01,-0.05
-1.7550e-02,3,3.08,-0.33,-0.31,-4.47035e-10,0.02,-0.01,0.01
-1.7542e-02,2.92,2.92,-0.35,-0.37,-4.47035e-10,-0.04,-0.01,-0.05
-1.7534e-02,3,3.08,-0.35,-0.31,-4.47035e-10,0.02,-0.01,0.01
-1.7527e-02,3,2.84,-0.33,-0.37,-4.47035e-10,-0.04,-0.01,-0.03
-1.7519e-02,3,3.08,-0.35,-0.31,0.02,0.02,0.01,0.01
-1.7511e-02,2.92,2.84,-0.35,-0.37,-4.47035e-10,-0.02,-0.03,-0.03
-1.7504e-02,3,3.08,-0.35,-0.31,-4.47035e-10,0.02,-0.01,0.01
